<?xml version="1.0" encoding="utf-8"?>
<!-- Generator: Adobe Illustrator 21.0.2, SVG Export Plug-In . SVG Version: 6.00 Build 0)  -->
<svg version="1.1" xmlns="http://www.w3.org/2000/svg" xmlns:xlink="http://www.w3.org/1999/xlink" x="0px" y="0px"
	 viewBox="0 0 288 79.7" style="enable-background:new 0 0 288 79.7;" xml:space="preserve">
<style type="text/css">
	.st0{fill:#00B6DB;}
	.st1{fill:#1A1A1A;}
	.st2{fill:none;stroke:#808285;stroke-width:0.4755;}
	.st3{fill:none;}
	.st4{fill:#3A4A53;}
	.st5{display:none;}
	.st6{display:inline;}
	.st7{fill:#0091B3;}
	.st8{display:inline;fill:#1A1A1A;}
	.st9{display:inline;fill:#333E48;stroke:#808285;stroke-width:0.4755;}
	.st10{display:inline;fill:#0091B3;}
	.st11{display:inline;fill:#333E48;}
	.st12{fill:#999999;}
	.st13{display:inline;fill:none;stroke:#666666;stroke-width:0.4755;}
	.st14{display:inline;fill:#999999;}
	.st15{display:inline;fill:none;}
	.st16{display:inline;fill:#333333;}
	.st17{display:inline;fill:none;stroke:#808285;stroke-width:0.4755;}
	.st18{display:inline;fill:#00B6DB;}
	.st19{display:inline;fill:#FFFFFF;}
	.st20{fill:#FFFFFF;}
	.st21{display:inline;fill:#FFFFFF;stroke:#808285;stroke-width:0.4755;}
</style>
<g id="Full_x5F_cmyk">
	<g>
		<g>
			<path class="st0" d="M57.7,62.3v3.5h5.9v1.2h-7.2V56.7h7.1v1.2h-5.8v3.2h5v1.2H57.7z"/>
			<path class="st0" d="M68.3,60.1h1.3l-2.1,3.4l2.1,3.5h-1.3l-1.5-2.4l-1.4,2.4h-1.3l2.1-3.5l-2-3.4h1.3l1.4,2.4L68.3,60.1z"/>
			<path class="st0" d="M70.7,60.1h1.1v1c0.2-0.3,0.4-0.4,0.6-0.6c0.4-0.3,1.1-0.6,1.8-0.6c1.5,0,3.1,1.2,3.1,3.6
				c0,1.9-1,3.6-3.2,3.6c-0.9,0-1.7-0.3-2.3-1v4.1h-1.1V60.1z M71.8,63.6c0,1.5,0.7,2.5,2.1,2.5c0.4,0,0.8-0.1,1.2-0.3
				c0.4-0.2,1-0.9,1-2.3c0-1.6-0.9-2.6-2.2-2.5C72.6,61,71.8,62.1,71.8,63.6z"/>
			<path class="st0" d="M84.9,64.8c-0.2,0.5-0.8,2.3-3.1,2.3c-2,0-3.4-1.4-3.4-3.7c0-2.6,1.9-3.6,3.3-3.6c1.3,0,2.6,0.7,3,2.4
				c0.1,0.6,0.1,1.1,0.1,1.4h-5.2c0,1.1,0.6,2.6,2.2,2.6c1,0,1.6-0.7,1.8-1.6L84.9,64.8z M83.7,62.9c-0.1-1.8-1.4-2.1-2-2.1
				c-1,0-1.8,0.7-1.9,2.1H83.7z"/>
			<path class="st0" d="M87.6,60.1v1.2c0.7-1.3,1.9-1.3,2.4-1.3v1.2c-0.1,0-0.3,0-0.5,0c-0.7,0-1.2,0.3-1.6,0.8
				c-0.3,0.5-0.3,1.1-0.3,1.7v3.2h-1.2v-6.8H87.6z"/>
			<path class="st0" d="M92.2,56.7V58h-1.1v-1.3H92.2z M92.2,60.1v6.8h-1.1v-6.8H92.2z"/>
			<path class="st0" d="M100.1,64.8c-0.2,0.5-0.8,2.3-3.1,2.3c-2,0-3.4-1.4-3.4-3.7c0-2.6,1.9-3.6,3.3-3.6c1.3,0,2.6,0.7,3,2.4
				c0.1,0.6,0.1,1.1,0.1,1.4h-5.2c0,1.1,0.6,2.6,2.2,2.6c1,0,1.6-0.7,1.8-1.6L100.1,64.8z M98.8,62.9c-0.1-1.8-1.4-2.1-2-2.1
				c-1,0-1.8,0.7-1.9,2.1H98.8z"/>
			<path class="st0" d="M102.7,60.1v1c0.6-1.1,1.7-1.2,2.1-1.2c0.9,0,1.9,0.4,2.3,1.6c0.1,0.4,0.1,0.8,0.1,1.4v4.1h-1.1v-3.9
				c0-0.7,0-0.9-0.1-1.1c-0.2-0.7-0.8-0.9-1.5-0.9c-0.5,0-0.9,0.2-1.3,0.5c-0.5,0.5-0.5,1-0.5,1.5v3.9h-1.2v-6.8H102.7z"/>
			<path class="st0" d="M115.4,64.5c0,0.3-0.1,0.7-0.4,1.2c-0.6,1-1.5,1.5-2.8,1.5c-2.5,0-3.4-1.9-3.4-3.6c0-1.9,1-3.7,3.3-3.7
				c1.1,0,2.7,0.4,3.2,2.3l-1.3,0.1c0-0.3-0.3-1.6-1.8-1.6c-2,0-2.1,2.2-2.1,2.8c0,0.7,0.1,1.4,0.5,1.8c0.4,0.6,1,0.9,1.7,0.9
				c1.7,0,1.9-1.4,1.9-1.9L115.4,64.5z"/>
			<path class="st0" d="M122.8,64.8c-0.2,0.5-0.8,2.3-3.1,2.3c-2,0-3.4-1.4-3.4-3.7c0-2.6,1.9-3.6,3.3-3.6c1.3,0,2.6,0.7,3,2.4
				c0.1,0.6,0.1,1.1,0.1,1.4h-5.2c0,1.1,0.6,2.6,2.2,2.6c1,0,1.6-0.7,1.8-1.6L122.8,64.8z M121.5,62.9c-0.1-1.8-1.4-2.1-2-2.1
				c-1,0-1.8,0.7-1.9,2.1H121.5z"/>
			<path class="st0" d="M129.7,62.6v4.3h-1.3V56.7h4.4c0.5,0,1.1,0,1.6,0.2c1.2,0.4,1.8,1.5,1.8,2.7c0,1.1-0.5,2.4-1.9,2.8
				c-0.5,0.2-1,0.2-1.6,0.2H129.7z M129.7,61.4h2.9c0.8,0,1.3,0,1.8-0.5c0.3-0.3,0.5-0.9,0.5-1.4c0-0.3-0.1-0.9-0.5-1.3
				c-0.5-0.4-1-0.4-1.4-0.4h-3.2V61.4z"/>
			<path class="st0" d="M140,67.1c-2.4,0-3.4-1.8-3.4-3.6c0-1.5,0.8-3.7,3.4-3.7c2.3,0,3.3,1.8,3.3,3.6
				C143.4,65.6,142.1,67.1,140,67.1z M142,62.6c-0.3-1.4-1.1-1.7-1.9-1.7c-1.6,0-2.2,1.2-2.2,2.8c0,1.4,0.6,2.6,2.1,2.6
				c1.9,0,2.1-2,2.1-2.7C142.1,63.1,142.1,62.8,142,62.6z"/>
			<path class="st0" d="M149.8,60.1l1.6,5.1l1.8-5.1h1.2l-2.5,6.8h-1l-1.6-5.1l-1.7,5.1h-1.1l-2.4-6.8h1.3l1.7,5.1l1.7-5.1H149.8z"
				/>
			<path class="st0" d="M161.6,64.8c-0.2,0.5-0.8,2.3-3.1,2.3c-2,0-3.4-1.4-3.4-3.7c0-2.6,1.9-3.6,3.3-3.6c1.3,0,2.6,0.7,3,2.4
				c0.1,0.6,0.1,1.1,0.1,1.4h-5.2c0,1.1,0.6,2.6,2.2,2.6c1,0,1.6-0.7,1.8-1.6L161.6,64.8z M160.3,62.9c-0.1-1.8-1.4-2.1-2-2.1
				c-1,0-1.8,0.7-1.9,2.1H160.3z"/>
			<path class="st0" d="M164.2,60.1v1.2c0.7-1.3,1.9-1.3,2.4-1.3v1.2c-0.1,0-0.3,0-0.5,0c-0.7,0-1.2,0.3-1.6,0.8
				c-0.3,0.5-0.3,1.1-0.3,1.7v3.2h-1.2v-6.8H164.2z"/>
			<path class="st0" d="M168.8,56.7V58h-1.1v-1.3H168.8z M168.8,60.1v6.8h-1.1v-6.8H168.8z"/>
			<path class="st0" d="M171.8,60.1v1c0.6-1.1,1.7-1.2,2.1-1.2c0.9,0,1.9,0.4,2.3,1.6c0.1,0.4,0.1,0.8,0.1,1.4v4.1h-1.1v-3.9
				c0-0.7,0-0.9-0.1-1.1c-0.2-0.7-0.8-0.9-1.5-0.9c-0.5,0-0.9,0.2-1.3,0.5c-0.5,0.5-0.5,1-0.5,1.5v3.9h-1.2v-6.8H171.8z"/>
			<path class="st0" d="M184.5,60.1v6.5c0,0.8,0,1.7-0.4,2.4c-0.5,0.9-1.7,1.3-2.7,1.3c-0.7,0-1.5-0.2-2.1-0.6c-0.9-0.6-1-1.6-1-2
				h1.3c0,0.8,0.5,1.6,1.9,1.6c0.8,0,1.2-0.3,1.5-0.5c0.4-0.5,0.4-1,0.4-2.1v-0.8c-0.2,0.3-0.9,1.2-2.3,1.2c-1.7,0-3.2-1.2-3.2-3.6
				c0-2.8,1.8-3.7,3.2-3.7c0.6,0,1.5,0.2,2.2,1.1v-0.9H184.5z M179,63.5c0,0.4,0,1.2,0.5,1.8c0.5,0.6,1.1,0.8,1.7,0.8
				c0.7,0,1.3-0.3,1.7-0.9c0.4-0.6,0.5-1.4,0.5-1.8c0-2.3-1.7-2.5-2.2-2.5C179.9,60.9,179,61.9,179,63.5z"/>
			<path class="st0" d="M191.7,56.7v10.3h-1.4V56.7H191.7z"/>
			<path class="st0" d="M194.8,60.1v1c0.6-1.1,1.7-1.2,2.1-1.2c0.9,0,1.9,0.4,2.3,1.6c0.1,0.4,0.1,0.8,0.1,1.4v4.1h-1.1v-3.9
				c0-0.7,0-0.9-0.1-1.1c-0.2-0.7-0.8-0.9-1.5-0.9c-0.5,0-0.9,0.2-1.3,0.5c-0.5,0.5-0.5,1-0.5,1.5v3.9h-1.2v-6.8H194.8z"/>
			<path class="st0" d="M202.8,60.1h1.3v1h-1.3V65c0,0.8,0,1.2,0.5,1.2c0.2,0,0.5-0.1,0.8-0.2v1c-0.2,0-0.7,0.1-1.1,0.1
				c-1.3,0-1.3-0.7-1.3-1.6v-4.4h-1.1v-1h1.1v-2.2h1.2V60.1z"/>
			<path class="st0" d="M211.5,64.8c-0.2,0.5-0.8,2.3-3.1,2.3c-2,0-3.4-1.4-3.4-3.7c0-2.6,1.9-3.6,3.3-3.6c1.3,0,2.6,0.7,3,2.4
				c0.1,0.6,0.1,1.1,0.1,1.4h-5.2c0,1.1,0.6,2.6,2.2,2.6c1,0,1.6-0.7,1.8-1.6L211.5,64.8z M210.3,62.9c-0.1-1.8-1.4-2.1-2-2.1
				c-1,0-1.8,0.7-1.9,2.1H210.3z"/>
			<path class="st0" d="M214.1,56.7v10.3H213V56.7H214.1z"/>
			<path class="st0" d="M217.2,56.7v10.3H216V56.7H217.2z"/>
			<path class="st0" d="M220.2,56.7V58h-1.1v-1.3H220.2z M220.2,60.1v6.8h-1.1v-6.8H220.2z"/>
			<path class="st0" d="M228.4,60.1v6.5c0,0.8,0,1.7-0.4,2.4c-0.5,0.9-1.7,1.3-2.7,1.3c-0.7,0-1.5-0.2-2.1-0.6c-0.9-0.6-1-1.6-1-2
				h1.3c0,0.8,0.5,1.6,1.9,1.6c0.8,0,1.2-0.3,1.5-0.5c0.4-0.5,0.4-1,0.4-2.1v-0.8c-0.2,0.3-0.9,1.2-2.3,1.2c-1.7,0-3.2-1.2-3.2-3.6
				c0-2.8,1.8-3.7,3.2-3.7c0.6,0,1.5,0.2,2.2,1.1v-0.9H228.4z M222.9,63.5c0,0.4,0,1.2,0.5,1.8c0.5,0.6,1.1,0.8,1.7,0.8
				c0.7,0,1.3-0.3,1.7-0.9c0.4-0.6,0.5-1.4,0.5-1.8c0-2.3-1.7-2.5-2.2-2.5C223.8,60.9,222.9,61.9,222.9,63.5z"/>
			<path class="st0" d="M236.3,64.8c-0.2,0.5-0.8,2.3-3.1,2.3c-2,0-3.4-1.4-3.4-3.7c0-2.6,1.9-3.6,3.3-3.6c1.3,0,2.6,0.7,3,2.4
				c0.1,0.6,0.1,1.1,0.1,1.4h-5.2c0,1.1,0.6,2.6,2.2,2.6c1,0,1.6-0.7,1.8-1.6L236.3,64.8z M235.1,62.9c-0.1-1.8-1.4-2.1-2-2.1
				c-1,0-1.8,0.7-1.9,2.1H235.1z"/>
			<path class="st0" d="M239,60.1v1c0.6-1.1,1.7-1.2,2.1-1.2c0.9,0,1.9,0.4,2.3,1.6c0.1,0.4,0.1,0.8,0.1,1.4v4.1h-1.1v-3.9
				c0-0.7,0-0.9-0.1-1.1c-0.2-0.7-0.8-0.9-1.5-0.9c-0.5,0-0.9,0.2-1.3,0.5c-0.5,0.5-0.5,1-0.5,1.5v3.9h-1.2v-6.8H239z"/>
			<path class="st0" d="M251.6,64.5c0,0.3-0.1,0.7-0.4,1.2c-0.6,1-1.5,1.5-2.8,1.5c-2.5,0-3.4-1.9-3.4-3.6c0-1.9,1-3.7,3.3-3.7
				c1.1,0,2.7,0.4,3.2,2.3l-1.3,0.1c0-0.3-0.3-1.6-1.8-1.6c-2,0-2.1,2.2-2.1,2.8c0,0.7,0.1,1.4,0.4,1.8c0.4,0.6,1,0.9,1.7,0.9
				c1.7,0,1.9-1.4,1.9-1.9L251.6,64.5z"/>
			<path class="st0" d="M259,64.8c-0.2,0.5-0.8,2.3-3.1,2.3c-2,0-3.4-1.4-3.4-3.7c0-2.6,1.9-3.6,3.3-3.6c1.3,0,2.6,0.7,3,2.4
				c0.1,0.6,0.1,1.1,0.1,1.4h-5.2c0,1.1,0.6,2.6,2.2,2.6c1,0,1.6-0.7,1.8-1.6L259,64.8z M257.8,62.9c-0.1-1.8-1.4-2.1-2-2.1
				c-1,0-1.8,0.7-1.9,2.1H257.8z"/>
		</g>
	</g>
	<path class="st1" d="M56.2,40.4"/>
	<path class="st2" d="M52.9,31.7"/>
	<polygon class="st0" points="52.5,30.6 49.6,33.6 61.5,45.6 56.1,51 62.1,51 67.5,45.6 	"/>
	<path class="st3" d="M113.5,33.4c-2.4,0-4.2,0.5-5.5,1.4c-1.2,0.9-1.8,2.1-1.8,3.7c0,0.8,0.2,1.5,0.5,2.1c0.3,0.6,0.8,1.1,1.3,1.5
		c0.6,0.4,1.2,0.8,2,1c0.8,0.2,1.6,0.3,2.5,0.3c1.1,0,2.2-0.2,3.2-0.5c1-0.3,1.9-0.8,2.7-1.4c0.8-0.6,1.4-1.3,1.8-2.1
		c0.4-0.8,0.6-1.7,0.6-2.7v-2.3c-0.9-0.2-1.9-0.5-3.1-0.7C116.6,33.6,115.1,33.4,113.5,33.4z"/>
	<path class="st4" d="M54.6,41.6c-0.6,0.3-1.1,0.5-1.6,0.7c-1.3,0.5-2.8,0.7-4.3,0.7c-2,0-3.9-0.4-5.5-1.1c-1.7-0.8-3.1-1.8-4.3-3.1
		c-1.2-1.3-2.2-2.8-2.9-4.6c-0.7-1.7-1-3.6-1-5.6c0-2,0.3-3.9,1-5.6c0.7-1.7,1.6-3.3,2.8-4.5c1.2-1.3,2.6-2.3,4.3-3
		c1.7-0.7,3.5-1.1,5.5-1.1c2,0,3.8,0.4,5.5,1.1c1.7,0.8,3.1,1.8,4.3,3.1c1.2,1.3,2.2,2.8,2.9,4.6c0.7,1.8,1,3.6,1,5.6
		c0,1.7-0.3,3.4-0.8,4.9c-0.2,0.7-0.5,1.4-0.9,2l3.5,3.5c0.8-1.2,1.5-2.6,2-3.9c0.7-2.1,1.1-4.3,1.1-6.6c0-2.5-0.4-4.9-1.3-7.2
		c-0.9-2.3-2.1-4.3-3.8-6c-1.6-1.7-3.6-3.1-5.8-4.1c-2.3-1-4.8-1.5-7.5-1.5c-2.7,0-5.3,0.5-7.6,1.5c-2.3,1-4.2,2.4-5.9,4.1
		c-1.6,1.7-2.9,3.7-3.8,6c-0.9,2.3-1.3,4.7-1.3,7.2c0,2.5,0.4,4.9,1.3,7.2c0.9,2.2,2.1,4.3,3.8,6c1.6,1.7,3.6,3.1,5.8,4.1
		c2.3,1,4.8,1.5,7.5,1.5c2.3,0,4.4-0.3,6.3-1c1-0.3,2-0.8,3.1-1.5l0.1-0.1L54.6,41.6L54.6,41.6z"/>
	<path class="st4" d="M91.8,35.2c0,1.2-0.2,2.3-0.6,3.2c-0.4,1-0.9,1.8-1.6,2.5c-0.7,0.7-1.5,1.2-2.4,1.6c-0.9,0.4-1.9,0.6-3,0.6
		c-2.2,0-3.9-0.7-5.1-2c-1.2-1.4-1.8-3.2-1.8-5.6V19.8h-4.6v16.7c0,1.6,0.2,3.1,0.7,4.4c0.5,1.3,1.2,2.5,2.1,3.4
		c0.9,1,2,1.7,3.3,2.2c1.3,0.5,2.8,0.8,4.4,0.8c2.3,0,4.3-0.5,5.7-1.6C90.1,45,91,44,91.8,43v3.8h4.6v-27h-4.6V35.2z"/>
	<path class="st4" d="M113.7,19.4c-2,0-3.7,0.2-5.2,0.6c-1.5,0.4-3,0.9-4.5,1.6l-0.3,0.1l1.4,3.9l0.4-0.2c1.2-0.6,2.4-1,3.7-1.4
		c1.2-0.3,2.6-0.5,4.1-0.5c2.4,0,4.2,0.6,5.5,1.7c1.3,1.1,1.9,2.8,1.9,5.1v0.5c-1.1-0.3-2.1-0.5-3.3-0.7c-1.2-0.2-2.7-0.3-4.1-0.3
		c-1.9,0-3.7,0.2-5,0.6c-1.4,0.4-2.6,0.9-3.7,1.7c-1,0.7-1.9,1.7-2.4,2.8c-0.6,1.1-0.9,2.4-0.9,3.8c0,1.4,0.3,2.7,0.9,3.8
		c0.6,1,1.4,1.9,2.3,2.7c1,0.7,2.1,1.3,3.3,1.6c1.2,0.3,2.4,0.5,3.7,0.5c2.4,0,4.4-0.5,6-1.4c1.3-0.7,2.3-1.6,3.2-2.5v3.4h4.5V30.3
		c0-3.6-1-6.3-3-8.2C120.3,20.3,117.4,19.4,113.7,19.4z M120.9,36.7c0,1-0.2,1.9-0.6,2.7c-0.4,0.8-1,1.5-1.8,2.1
		c-0.8,0.6-1.7,1.1-2.7,1.4c-1,0.3-2.1,0.5-3.2,0.5c-0.9,0-1.7-0.1-2.5-0.3c-0.7-0.2-1.4-0.6-2-1c-0.6-0.4-1-0.9-1.3-1.5
		c-0.3-0.6-0.5-1.3-0.5-2.1c0-1.6,0.6-2.8,1.8-3.7c1.2-0.9,3.1-1.4,5.5-1.4c1.6,0,3,0.1,4.3,0.3c1.1,0.2,2.2,0.4,3.1,0.7V36.7z"/>
	<path class="st4" d="M152,24.1c-0.3-0.4-0.7-0.9-1.2-1.3c-0.7-0.7-1.4-1.3-2.3-1.8c-0.8-0.5-1.8-0.9-2.8-1.3
		c-1-0.3-2.2-0.5-3.3-0.5c-1.7,0-3.4,0.3-4.9,1c-1.5,0.6-2.9,1.6-4.1,2.8c-1.2,1.2-2.2,2.7-2.9,4.4c-0.7,1.7-1.1,3.7-1.1,5.9
		c0,2.2,0.4,4.2,1.1,5.9c0.7,1.7,1.7,3.2,2.9,4.4c1.2,1.2,2.6,2.1,4.1,2.7c1.5,0.6,3.1,0.9,4.8,0.9c1.3,0,2.4-0.2,3.4-0.5
		c1-0.3,2-0.8,2.8-1.3c0.8-0.5,1.6-1.2,2.3-1.9c0.4-0.5,0.8-0.9,1.2-1.4v4.6h4.6V8.9H152V24.1z M151.4,37.3
		c-0.5,1.2-1.2,2.3-2.1,3.1c-0.9,0.8-1.9,1.5-2.9,2c-1.1,0.5-2.2,0.7-3.4,0.7c-1.2,0-2.3-0.2-3.4-0.7c-1.1-0.4-2-1.1-2.8-2
		c-0.8-0.9-1.5-1.9-1.9-3.1c-0.5-1.2-0.7-2.6-0.7-4.1c0-1.5,0.2-2.9,0.7-4.1c0.5-1.2,1.1-2.3,1.9-3.1c0.8-0.8,1.7-1.5,2.8-1.9
		c1.1-0.4,2.2-0.7,3.5-0.7c1.2,0,2.3,0.2,3.4,0.7c1.1,0.5,2.1,1.1,2.9,2c0.9,0.8,1.6,1.9,2.1,3.1c0.5,1.2,0.8,2.6,0.8,4
		C152.1,34.7,151.9,36.1,151.4,37.3z"/>
	<path class="st4" d="M174,19.8c-1.1,0.3-2.2,0.9-3.1,1.6c-0.9,0.7-1.8,1.5-2.5,2.4c-0.4,0.5-0.8,1.1-1.2,1.7v-5.7h-4.6v27h4.6V35.9
		c0-1.9,0.3-3.6,0.8-5.1c0.5-1.5,1.3-2.7,2.2-3.7c0.9-1,2-1.7,3.2-2.2c1.2-0.5,2.5-0.7,3.9-0.7h0.7v-4.9l-0.7,0
		C176.1,19.3,175,19.5,174,19.8z"/>
	<rect x="182.5" y="19.8" class="st4" width="4.6" height="27"/>
	<rect x="182.3" y="9.7" class="st0" width="5.2" height="5"/>
	<path class="st4" d="M215.5,22.2c-0.9-1-2-1.7-3.3-2.2c-1.3-0.5-2.7-0.8-4.4-0.8c-2.3,0-4.3,0.5-5.7,1.6c-1.1,0.8-2.1,1.7-2.9,2.8
		v-3.8h-4.6v27h4.6V31.4c0-1.2,0.2-2.3,0.6-3.2c0.4-1,0.9-1.8,1.6-2.5c0.7-0.7,1.5-1.2,2.4-1.6c0.9-0.4,1.9-0.6,3-0.6
		c2.2,0,3.9,0.7,5.1,2c1.2,1.4,1.8,3.2,1.8,5.6v15.7h4.6V30.1c0-1.6-0.2-3.1-0.7-4.4C217,24.4,216.4,23.2,215.5,22.2z"/>
	<path class="st4" d="M238.2,23.9v-4.2h-8.3v-7.9h-4.6v7.9h-3.7v4.2h3.7v15.5c0,1.4,0.2,2.6,0.6,3.5c0.4,1,0.9,1.8,1.6,2.4
		c0.7,0.6,1.5,1.1,2.5,1.4c1,0.3,2,0.4,3.1,0.4c1,0,1.9-0.1,2.7-0.3c0.8-0.2,1.6-0.5,2.2-0.9l0.2-0.1v-4.1l-0.5,0.3
		c-0.6,0.3-1.3,0.6-1.8,0.7c-0.6,0.1-1.2,0.2-1.8,0.2c-1.2,0-2.2-0.3-3-0.9c-0.7-0.6-1.1-1.6-1.1-3.1v-15H238.2z"/>
</g>
<g id="Full_x5F_PMS" class="st5">
	<g class="st6">
		<g>
			<path class="st7" d="M57.7,62.3v3.5h5.9v1.2h-7.2V56.7h7.1v1.2h-5.8v3.2h5v1.2H57.7z"/>
			<path class="st7" d="M68.3,60.1h1.3l-2.1,3.4l2.1,3.5h-1.3l-1.5-2.4l-1.4,2.4h-1.3l2.1-3.5l-2-3.4h1.3l1.4,2.4L68.3,60.1z"/>
			<path class="st7" d="M70.7,60.1h1.1v1c0.2-0.3,0.4-0.4,0.6-0.6c0.4-0.3,1.1-0.6,1.8-0.6c1.5,0,3.1,1.2,3.1,3.6
				c0,1.9-1,3.6-3.2,3.6c-0.9,0-1.7-0.3-2.3-1v4.1h-1.1V60.1z M71.8,63.6c0,1.5,0.7,2.5,2.1,2.5c0.4,0,0.8-0.1,1.2-0.3
				c0.4-0.2,1-0.9,1-2.3c0-1.6-0.9-2.6-2.2-2.5C72.6,61,71.8,62.1,71.8,63.6z"/>
			<path class="st7" d="M84.9,64.8c-0.2,0.5-0.8,2.3-3.1,2.3c-2,0-3.4-1.4-3.4-3.7c0-2.6,1.9-3.6,3.3-3.6c1.3,0,2.6,0.7,3,2.4
				c0.1,0.6,0.1,1.1,0.1,1.4h-5.2c0,1.1,0.6,2.6,2.2,2.6c1,0,1.6-0.7,1.8-1.6L84.9,64.8z M83.7,62.9c-0.1-1.8-1.4-2.1-2-2.1
				c-1,0-1.8,0.7-1.9,2.1H83.7z"/>
			<path class="st7" d="M87.6,60.1v1.2c0.7-1.3,1.9-1.3,2.4-1.3v1.2c-0.1,0-0.3,0-0.5,0c-0.7,0-1.2,0.3-1.6,0.8
				c-0.3,0.5-0.3,1.1-0.3,1.7v3.2h-1.2v-6.8H87.6z"/>
			<path class="st7" d="M92.2,56.7V58h-1.1v-1.3H92.2z M92.2,60.1v6.8h-1.1v-6.8H92.2z"/>
			<path class="st7" d="M100.1,64.8c-0.2,0.5-0.8,2.3-3.1,2.3c-2,0-3.4-1.4-3.4-3.7c0-2.6,1.9-3.6,3.3-3.6c1.3,0,2.6,0.7,3,2.4
				c0.1,0.6,0.1,1.1,0.1,1.4h-5.2c0,1.1,0.6,2.6,2.2,2.6c1,0,1.6-0.7,1.8-1.6L100.1,64.8z M98.8,62.9c-0.1-1.8-1.4-2.1-2-2.1
				c-1,0-1.8,0.7-1.9,2.1H98.8z"/>
			<path class="st7" d="M102.7,60.1v1c0.6-1.1,1.7-1.2,2.1-1.2c0.9,0,1.9,0.4,2.3,1.6c0.1,0.4,0.1,0.8,0.1,1.4v4.1h-1.1v-3.9
				c0-0.7,0-0.9-0.1-1.1c-0.2-0.7-0.8-0.9-1.5-0.9c-0.5,0-0.9,0.2-1.3,0.5c-0.5,0.5-0.5,1-0.5,1.5v3.9h-1.2v-6.8H102.7z"/>
			<path class="st7" d="M115.4,64.5c0,0.3-0.1,0.7-0.4,1.2c-0.6,1-1.5,1.5-2.8,1.5c-2.5,0-3.4-1.9-3.4-3.6c0-1.9,1-3.7,3.3-3.7
				c1.1,0,2.7,0.4,3.2,2.3l-1.3,0.1c0-0.3-0.3-1.6-1.8-1.6c-2,0-2.1,2.2-2.1,2.8c0,0.7,0.1,1.4,0.5,1.8c0.4,0.6,1,0.9,1.7,0.9
				c1.7,0,1.9-1.4,1.9-1.9L115.4,64.5z"/>
			<path class="st7" d="M122.8,64.8c-0.2,0.5-0.8,2.3-3.1,2.3c-2,0-3.4-1.4-3.4-3.7c0-2.6,1.9-3.6,3.3-3.6c1.3,0,2.6,0.7,3,2.4
				c0.1,0.6,0.1,1.1,0.1,1.4h-5.2c0,1.1,0.6,2.6,2.2,2.6c1,0,1.6-0.7,1.8-1.6L122.8,64.8z M121.5,62.9c-0.1-1.8-1.4-2.1-2-2.1
				c-1,0-1.8,0.7-1.9,2.1H121.5z"/>
			<path class="st7" d="M129.7,62.6v4.3h-1.3V56.7h4.4c0.5,0,1.1,0,1.6,0.2c1.2,0.4,1.8,1.5,1.8,2.7c0,1.1-0.5,2.4-1.9,2.8
				c-0.5,0.2-1,0.2-1.6,0.2H129.7z M129.7,61.4h2.9c0.8,0,1.3,0,1.8-0.5c0.3-0.3,0.5-0.9,0.5-1.4c0-0.3-0.1-0.9-0.5-1.3
				c-0.5-0.4-1-0.4-1.4-0.4h-3.2V61.4z"/>
			<path class="st7" d="M140,67.1c-2.4,0-3.4-1.8-3.4-3.6c0-1.5,0.8-3.7,3.4-3.7c2.3,0,3.3,1.8,3.3,3.6
				C143.4,65.6,142.1,67.1,140,67.1z M142,62.6c-0.3-1.4-1.1-1.7-1.9-1.7c-1.6,0-2.2,1.2-2.2,2.8c0,1.4,0.6,2.6,2.1,2.6
				c1.9,0,2.1-2,2.1-2.7C142.1,63.1,142.1,62.8,142,62.6z"/>
			<path class="st7" d="M149.8,60.1l1.6,5.1l1.8-5.1h1.2l-2.5,6.8h-1l-1.6-5.1l-1.7,5.1h-1.1l-2.4-6.8h1.3l1.7,5.1l1.7-5.1H149.8z"
				/>
			<path class="st7" d="M161.6,64.8c-0.2,0.5-0.8,2.3-3.1,2.3c-2,0-3.4-1.4-3.4-3.7c0-2.6,1.9-3.6,3.3-3.6c1.3,0,2.6,0.7,3,2.4
				c0.1,0.6,0.1,1.1,0.1,1.4h-5.2c0,1.1,0.6,2.6,2.2,2.6c1,0,1.6-0.7,1.8-1.6L161.6,64.8z M160.3,62.9c-0.1-1.8-1.4-2.1-2-2.1
				c-1,0-1.8,0.7-1.9,2.1H160.3z"/>
			<path class="st7" d="M164.2,60.1v1.2c0.7-1.3,1.9-1.3,2.4-1.3v1.2c-0.1,0-0.3,0-0.5,0c-0.7,0-1.2,0.3-1.6,0.8
				c-0.3,0.5-0.3,1.1-0.3,1.7v3.2h-1.2v-6.8H164.2z"/>
			<path class="st7" d="M168.8,56.7V58h-1.1v-1.3H168.8z M168.8,60.1v6.8h-1.1v-6.8H168.8z"/>
			<path class="st7" d="M171.8,60.1v1c0.6-1.1,1.7-1.2,2.1-1.2c0.9,0,1.9,0.4,2.3,1.6c0.1,0.4,0.1,0.8,0.1,1.4v4.1h-1.1v-3.9
				c0-0.7,0-0.9-0.1-1.1c-0.2-0.7-0.8-0.9-1.5-0.9c-0.5,0-0.9,0.2-1.3,0.5c-0.5,0.5-0.5,1-0.5,1.5v3.9h-1.2v-6.8H171.8z"/>
			<path class="st7" d="M184.5,60.1v6.5c0,0.8,0,1.7-0.4,2.4c-0.5,0.9-1.7,1.3-2.7,1.3c-0.7,0-1.5-0.2-2.1-0.6c-0.9-0.6-1-1.6-1-2
				h1.3c0,0.8,0.5,1.6,1.9,1.6c0.8,0,1.2-0.3,1.5-0.5c0.4-0.5,0.4-1,0.4-2.1v-0.8c-0.2,0.3-0.9,1.2-2.3,1.2c-1.7,0-3.2-1.2-3.2-3.6
				c0-2.8,1.8-3.7,3.2-3.7c0.6,0,1.5,0.2,2.2,1.1v-0.9H184.5z M179,63.5c0,0.4,0,1.2,0.5,1.8c0.5,0.6,1.1,0.8,1.7,0.8
				c0.7,0,1.3-0.3,1.7-0.9c0.4-0.6,0.5-1.4,0.5-1.8c0-2.3-1.7-2.5-2.2-2.5C179.9,60.9,179,61.9,179,63.5z"/>
			<path class="st7" d="M191.7,56.7v10.3h-1.4V56.7H191.7z"/>
			<path class="st7" d="M194.8,60.1v1c0.6-1.1,1.7-1.2,2.1-1.2c0.9,0,1.9,0.4,2.3,1.6c0.1,0.4,0.1,0.8,0.1,1.4v4.1h-1.1v-3.9
				c0-0.7,0-0.9-0.1-1.1c-0.2-0.7-0.8-0.9-1.5-0.9c-0.5,0-0.9,0.2-1.3,0.5c-0.5,0.5-0.5,1-0.5,1.5v3.9h-1.2v-6.8H194.8z"/>
			<path class="st7" d="M202.8,60.1h1.3v1h-1.3V65c0,0.8,0,1.2,0.5,1.2c0.2,0,0.5-0.1,0.8-0.2v1c-0.2,0-0.7,0.1-1.1,0.1
				c-1.3,0-1.3-0.7-1.3-1.6v-4.4h-1.1v-1h1.1v-2.2h1.2V60.1z"/>
			<path class="st7" d="M211.5,64.8c-0.2,0.5-0.8,2.3-3.1,2.3c-2,0-3.4-1.4-3.4-3.7c0-2.6,1.9-3.6,3.3-3.6c1.3,0,2.6,0.7,3,2.4
				c0.1,0.6,0.1,1.1,0.1,1.4h-5.2c0,1.1,0.6,2.6,2.2,2.6c1,0,1.6-0.7,1.8-1.6L211.5,64.8z M210.3,62.9c-0.1-1.8-1.4-2.1-2-2.1
				c-1,0-1.8,0.7-1.9,2.1H210.3z"/>
			<path class="st7" d="M214.1,56.7v10.3H213V56.7H214.1z"/>
			<path class="st7" d="M217.2,56.7v10.3H216V56.7H217.2z"/>
			<path class="st7" d="M220.2,56.7V58h-1.1v-1.3H220.2z M220.2,60.1v6.8h-1.1v-6.8H220.2z"/>
			<path class="st7" d="M228.4,60.1v6.5c0,0.8,0,1.7-0.4,2.4c-0.5,0.9-1.7,1.3-2.7,1.3c-0.7,0-1.5-0.2-2.1-0.6c-0.9-0.6-1-1.6-1-2
				h1.3c0,0.8,0.5,1.6,1.9,1.6c0.8,0,1.2-0.3,1.5-0.5c0.4-0.5,0.4-1,0.4-2.1v-0.8c-0.2,0.3-0.9,1.2-2.3,1.2c-1.7,0-3.2-1.2-3.2-3.6
				c0-2.8,1.8-3.7,3.2-3.7c0.6,0,1.5,0.2,2.2,1.1v-0.9H228.4z M222.9,63.5c0,0.4,0,1.2,0.5,1.8c0.5,0.6,1.1,0.8,1.7,0.8
				c0.7,0,1.3-0.3,1.7-0.9c0.4-0.6,0.5-1.4,0.5-1.8c0-2.3-1.7-2.5-2.2-2.5C223.8,60.9,222.9,61.9,222.9,63.5z"/>
			<path class="st7" d="M236.3,64.8c-0.2,0.5-0.8,2.3-3.1,2.3c-2,0-3.4-1.4-3.4-3.7c0-2.6,1.9-3.6,3.3-3.6c1.3,0,2.6,0.7,3,2.4
				c0.1,0.6,0.1,1.1,0.1,1.4h-5.2c0,1.1,0.6,2.6,2.2,2.6c1,0,1.6-0.7,1.8-1.6L236.3,64.8z M235.1,62.9c-0.1-1.8-1.4-2.1-2-2.1
				c-1,0-1.8,0.7-1.9,2.1H235.1z"/>
			<path class="st7" d="M239,60.1v1c0.6-1.1,1.7-1.2,2.1-1.2c0.9,0,1.9,0.4,2.3,1.6c0.1,0.4,0.1,0.8,0.1,1.4v4.1h-1.1v-3.9
				c0-0.7,0-0.9-0.1-1.1c-0.2-0.7-0.8-0.9-1.5-0.9c-0.5,0-0.9,0.2-1.3,0.5c-0.5,0.5-0.5,1-0.5,1.5v3.9h-1.2v-6.8H239z"/>
			<path class="st7" d="M251.6,64.5c0,0.3-0.1,0.7-0.4,1.2c-0.6,1-1.5,1.5-2.8,1.5c-2.5,0-3.4-1.9-3.4-3.6c0-1.9,1-3.7,3.3-3.7
				c1.1,0,2.7,0.4,3.2,2.3l-1.3,0.1c0-0.3-0.3-1.6-1.8-1.6c-2,0-2.1,2.2-2.1,2.8c0,0.7,0.1,1.4,0.4,1.8c0.4,0.6,1,0.9,1.7,0.9
				c1.7,0,1.9-1.4,1.9-1.9L251.6,64.5z"/>
			<path class="st7" d="M259,64.8c-0.2,0.5-0.8,2.3-3.1,2.3c-2,0-3.4-1.4-3.4-3.7c0-2.6,1.9-3.6,3.3-3.6c1.3,0,2.6,0.7,3,2.4
				c0.1,0.6,0.1,1.1,0.1,1.4h-5.2c0,1.1,0.6,2.6,2.2,2.6c1,0,1.6-0.7,1.8-1.6L259,64.8z M257.8,62.9c-0.1-1.8-1.4-2.1-2-2.1
				c-1,0-1.8,0.7-1.9,2.1H257.8z"/>
		</g>
	</g>
	<path class="st8" d="M56.2,40.4"/>
	<path class="st9" d="M52.9,31.7"/>
	<polygon class="st10" points="52.5,30.6 49.6,33.6 61.5,45.6 56.1,51 62.1,51 67.5,45.6 	"/>
	<path class="st11" d="M54.6,41.6c-0.6,0.3-1.1,0.5-1.6,0.7c-1.3,0.5-2.8,0.7-4.3,0.7c-2,0-3.9-0.4-5.5-1.1
		c-1.7-0.8-3.1-1.8-4.3-3.1c-1.2-1.3-2.2-2.8-2.9-4.6c-0.7-1.7-1-3.6-1-5.6c0-2,0.3-3.9,1-5.6c0.7-1.7,1.6-3.3,2.8-4.5
		c1.2-1.3,2.6-2.3,4.3-3c1.7-0.7,3.5-1.1,5.5-1.1c2,0,3.8,0.4,5.5,1.1c1.7,0.8,3.1,1.8,4.3,3.1c1.2,1.3,2.2,2.8,2.9,4.6
		c0.7,1.8,1,3.6,1,5.6c0,1.7-0.3,3.4-0.8,4.9c-0.2,0.7-0.5,1.4-0.9,2l3.5,3.5c0.8-1.2,1.5-2.6,2-3.9c0.7-2.1,1.1-4.3,1.1-6.6
		c0-2.5-0.4-4.9-1.3-7.2c-0.9-2.3-2.1-4.3-3.8-6c-1.6-1.7-3.6-3.1-5.8-4.1c-2.3-1-4.8-1.5-7.5-1.5c-2.7,0-5.3,0.5-7.6,1.5
		c-2.3,1-4.2,2.4-5.9,4.1c-1.6,1.7-2.9,3.7-3.8,6c-0.9,2.3-1.3,4.7-1.3,7.2c0,2.5,0.4,4.9,1.3,7.2c0.9,2.2,2.1,4.3,3.8,6
		c1.6,1.7,3.6,3.1,5.8,4.1c2.3,1,4.8,1.5,7.5,1.5c2.3,0,4.4-0.3,6.3-1c1-0.3,2-0.8,3.1-1.5l0.1-0.1L54.6,41.6L54.6,41.6z"/>
	<path class="st11" d="M91.8,35.2c0,1.2-0.2,2.3-0.6,3.2c-0.4,1-0.9,1.8-1.6,2.5c-0.7,0.7-1.5,1.2-2.4,1.6c-0.9,0.4-1.9,0.6-3,0.6
		c-2.2,0-3.9-0.7-5.1-2c-1.2-1.4-1.8-3.2-1.8-5.6V19.8h-4.6v16.7c0,1.6,0.2,3.1,0.7,4.4c0.5,1.3,1.2,2.5,2.1,3.4
		c0.9,1,2,1.7,3.3,2.2c1.3,0.5,2.8,0.8,4.4,0.8c2.3,0,4.3-0.5,5.7-1.6C90.1,45,91,44,91.8,43v3.8h4.6v-27h-4.6V35.2z"/>
	<path class="st11" d="M113.7,19.4c-2,0-3.7,0.2-5.2,0.6c-1.5,0.4-3,0.9-4.5,1.6l-0.3,0.1l1.4,3.9l0.4-0.2c1.2-0.6,2.4-1,3.7-1.4
		c1.2-0.3,2.6-0.5,4.1-0.5c2.4,0,4.2,0.6,5.5,1.7c1.3,1.1,1.9,2.8,1.9,5.1v0.5c-1.1-0.3-2.1-0.5-3.3-0.7c-1.2-0.2-2.7-0.3-4.1-0.3
		c-1.9,0-3.7,0.2-5,0.6c-1.4,0.4-2.6,0.9-3.7,1.7c-1,0.7-1.9,1.7-2.4,2.8c-0.6,1.1-0.9,2.4-0.9,3.8c0,1.4,0.3,2.7,0.9,3.8
		c0.6,1,1.4,1.9,2.3,2.7c1,0.7,2.1,1.3,3.3,1.6c1.2,0.3,2.4,0.5,3.7,0.5c2.4,0,4.4-0.5,6-1.4c1.3-0.7,2.3-1.6,3.2-2.5v3.4h4.5V30.3
		c0-3.6-1-6.3-3-8.2C120.3,20.3,117.4,19.4,113.7,19.4z M120.9,36.7c0,1-0.2,1.9-0.6,2.7c-0.4,0.8-1,1.5-1.8,2.1
		c-0.8,0.6-1.7,1.1-2.7,1.4c-1,0.3-2.1,0.5-3.2,0.5c-0.9,0-1.7-0.1-2.5-0.3c-0.7-0.2-1.4-0.6-2-1c-0.6-0.4-1-0.9-1.3-1.5
		c-0.3-0.6-0.5-1.3-0.5-2.1c0-1.6,0.6-2.8,1.8-3.7c1.2-0.9,3.1-1.4,5.5-1.4c1.6,0,3,0.1,4.3,0.3c1.1,0.2,2.2,0.4,3.1,0.7V36.7z"/>
	<path class="st11" d="M152,24.1c-0.3-0.4-0.7-0.9-1.2-1.3c-0.7-0.7-1.4-1.3-2.3-1.8c-0.8-0.5-1.8-0.9-2.8-1.3
		c-1-0.3-2.2-0.5-3.3-0.5c-1.7,0-3.4,0.3-4.9,1c-1.5,0.6-2.9,1.6-4.1,2.8c-1.2,1.2-2.2,2.7-2.9,4.4c-0.7,1.7-1.1,3.7-1.1,5.9
		c0,2.2,0.4,4.2,1.1,5.9c0.7,1.7,1.7,3.2,2.9,4.4c1.2,1.2,2.6,2.1,4.1,2.7c1.5,0.6,3.1,0.9,4.8,0.9c1.3,0,2.4-0.2,3.4-0.5
		c1-0.3,2-0.8,2.8-1.3c0.8-0.5,1.6-1.2,2.3-1.9c0.4-0.5,0.8-0.9,1.2-1.4v4.6h4.6V8.9H152V24.1z M151.4,37.3
		c-0.5,1.2-1.2,2.3-2.1,3.1c-0.9,0.8-1.9,1.5-2.9,2c-1.1,0.5-2.2,0.7-3.4,0.7c-1.2,0-2.3-0.2-3.4-0.7c-1.1-0.4-2-1.1-2.8-2
		c-0.8-0.9-1.5-1.9-1.9-3.1c-0.5-1.2-0.7-2.6-0.7-4.1c0-1.5,0.2-2.9,0.7-4.1c0.5-1.2,1.1-2.3,1.9-3.1c0.8-0.8,1.7-1.5,2.8-1.9
		c1.1-0.4,2.2-0.7,3.5-0.7c1.2,0,2.3,0.2,3.4,0.7c1.1,0.5,2.1,1.1,2.9,2c0.9,0.8,1.6,1.9,2.1,3.1c0.5,1.2,0.8,2.6,0.8,4
		C152.1,34.7,151.9,36.1,151.4,37.3z"/>
	<path class="st11" d="M174,19.8c-1.1,0.3-2.2,0.9-3.1,1.6c-0.9,0.7-1.8,1.5-2.5,2.4c-0.4,0.5-0.8,1.1-1.2,1.7v-5.7h-4.6v27h4.6
		V35.9c0-1.9,0.3-3.6,0.8-5.1c0.5-1.5,1.3-2.7,2.2-3.7c0.9-1,2-1.7,3.2-2.2c1.2-0.5,2.5-0.7,3.9-0.7h0.7v-4.9l-0.7,0
		C176.1,19.3,175,19.5,174,19.8z"/>
	<rect x="182.5" y="19.8" class="st11" width="4.6" height="27"/>
	<rect x="182.3" y="9.7" class="st10" width="5.2" height="5"/>
	<path class="st11" d="M215.5,22.2c-0.9-1-2-1.7-3.3-2.2c-1.3-0.5-2.7-0.8-4.4-0.8c-2.3,0-4.3,0.5-5.7,1.6c-1.1,0.8-2.1,1.7-2.9,2.8
		v-3.8h-4.6v27h4.6V31.4c0-1.2,0.2-2.3,0.6-3.2c0.4-1,0.9-1.8,1.6-2.5c0.7-0.7,1.5-1.2,2.4-1.6c0.9-0.4,1.9-0.6,3-0.6
		c2.2,0,3.9,0.7,5.1,2c1.2,1.4,1.8,3.2,1.8,5.6v15.7h4.6V30.1c0-1.6-0.2-3.1-0.7-4.4C217,24.4,216.4,23.2,215.5,22.2z"/>
	<path class="st11" d="M238.2,23.9v-4.2h-8.3v-7.9h-4.6v7.9h-3.7v4.2h3.7v15.5c0,1.4,0.2,2.6,0.6,3.5c0.4,1,0.9,1.8,1.6,2.4
		c0.7,0.6,1.5,1.1,2.5,1.4c1,0.3,2,0.4,3.1,0.4c1,0,1.9-0.1,2.7-0.3c0.8-0.2,1.6-0.5,2.2-0.9l0.2-0.1v-4.1l-0.5,0.3
		c-0.6,0.3-1.3,0.6-1.8,0.7c-0.6,0.1-1.2,0.2-1.8,0.2c-1.2,0-2.2-0.3-3-0.9c-0.7-0.6-1.1-1.6-1.1-3.1v-15H238.2z"/>
</g>
<g id="GRAYSCALE" class="st5">
	<g class="st6">
		<g>
			<path class="st12" d="M57.7,62.3v3.5h5.9v1.2h-7.2V56.7h7.1v1.2h-5.8v3.2h5v1.2H57.7z"/>
			<path class="st12" d="M68.3,60.1h1.3l-2.1,3.4l2.1,3.5h-1.3l-1.5-2.4l-1.4,2.4h-1.3l2.1-3.5l-2-3.4h1.3l1.4,2.4L68.3,60.1z"/>
			<path class="st12" d="M70.7,60.1h1.1v1c0.2-0.3,0.4-0.4,0.6-0.6c0.4-0.3,1.1-0.6,1.8-0.6c1.5,0,3.1,1.2,3.1,3.6
				c0,1.9-1,3.6-3.2,3.6c-0.9,0-1.7-0.3-2.3-1v4.1h-1.1V60.1z M71.8,63.6c0,1.5,0.7,2.5,2.1,2.5c0.4,0,0.8-0.1,1.2-0.3
				c0.4-0.2,1-0.9,1-2.3c0-1.6-0.9-2.6-2.2-2.5C72.6,61,71.8,62.1,71.8,63.6z"/>
			<path class="st12" d="M84.9,64.8c-0.2,0.5-0.8,2.3-3.1,2.3c-2,0-3.4-1.4-3.4-3.7c0-2.6,1.9-3.6,3.3-3.6c1.3,0,2.6,0.7,3,2.4
				c0.1,0.6,0.1,1.1,0.1,1.4h-5.2c0,1.1,0.6,2.6,2.2,2.6c1,0,1.6-0.7,1.8-1.6L84.9,64.8z M83.7,62.9c-0.1-1.8-1.4-2.1-2-2.1
				c-1,0-1.8,0.7-1.9,2.1H83.7z"/>
			<path class="st12" d="M87.6,60.1v1.2c0.7-1.3,1.9-1.3,2.4-1.3v1.2c-0.1,0-0.3,0-0.5,0c-0.7,0-1.2,0.3-1.6,0.8
				c-0.3,0.5-0.3,1.1-0.3,1.7v3.2h-1.2v-6.8H87.6z"/>
			<path class="st12" d="M92.2,56.7V58h-1.1v-1.3H92.2z M92.2,60.1v6.8h-1.1v-6.8H92.2z"/>
			<path class="st12" d="M100.1,64.8c-0.2,0.5-0.8,2.3-3.1,2.3c-2,0-3.4-1.4-3.4-3.7c0-2.6,1.9-3.6,3.3-3.6c1.3,0,2.6,0.7,3,2.4
				c0.1,0.6,0.1,1.1,0.1,1.4h-5.2c0,1.1,0.6,2.6,2.2,2.6c1,0,1.6-0.7,1.8-1.6L100.1,64.8z M98.8,62.9c-0.1-1.8-1.4-2.1-2-2.1
				c-1,0-1.8,0.7-1.9,2.1H98.8z"/>
			<path class="st12" d="M102.7,60.1v1c0.6-1.1,1.7-1.2,2.1-1.2c0.9,0,1.9,0.4,2.3,1.6c0.1,0.4,0.1,0.8,0.1,1.4v4.1h-1.1v-3.9
				c0-0.7,0-0.9-0.1-1.1c-0.2-0.7-0.8-0.9-1.5-0.9c-0.5,0-0.9,0.2-1.3,0.5c-0.5,0.5-0.5,1-0.5,1.5v3.9h-1.2v-6.8H102.7z"/>
			<path class="st12" d="M115.4,64.5c0,0.3-0.1,0.7-0.4,1.2c-0.6,1-1.5,1.5-2.8,1.5c-2.5,0-3.4-1.9-3.4-3.6c0-1.9,1-3.7,3.3-3.7
				c1.1,0,2.7,0.4,3.2,2.3l-1.3,0.1c0-0.3-0.3-1.6-1.8-1.6c-2,0-2.1,2.2-2.1,2.8c0,0.7,0.1,1.4,0.5,1.8c0.4,0.6,1,0.9,1.7,0.9
				c1.7,0,1.9-1.4,1.9-1.9L115.4,64.5z"/>
			<path class="st12" d="M122.8,64.8c-0.2,0.5-0.8,2.3-3.1,2.3c-2,0-3.4-1.4-3.4-3.7c0-2.6,1.9-3.6,3.3-3.6c1.3,0,2.6,0.7,3,2.4
				c0.1,0.6,0.1,1.1,0.1,1.4h-5.2c0,1.1,0.6,2.6,2.2,2.6c1,0,1.6-0.7,1.8-1.6L122.8,64.8z M121.5,62.9c-0.1-1.8-1.4-2.1-2-2.1
				c-1,0-1.8,0.7-1.9,2.1H121.5z"/>
			<path class="st12" d="M129.7,62.6v4.3h-1.3V56.7h4.4c0.5,0,1.1,0,1.6,0.2c1.2,0.4,1.8,1.5,1.8,2.7c0,1.1-0.5,2.4-1.9,2.8
				c-0.5,0.2-1,0.2-1.6,0.2H129.7z M129.7,61.4h2.9c0.8,0,1.3,0,1.8-0.5c0.3-0.3,0.5-0.9,0.5-1.4c0-0.3-0.1-0.9-0.5-1.3
				c-0.5-0.4-1-0.4-1.4-0.4h-3.2V61.4z"/>
			<path class="st12" d="M140,67.1c-2.4,0-3.4-1.8-3.4-3.6c0-1.5,0.8-3.7,3.4-3.7c2.3,0,3.3,1.8,3.3,3.6
				C143.4,65.6,142.1,67.1,140,67.1z M142,62.6c-0.3-1.4-1.1-1.7-1.9-1.7c-1.6,0-2.2,1.2-2.2,2.8c0,1.4,0.6,2.6,2.1,2.6
				c1.9,0,2.1-2,2.1-2.7C142.1,63.1,142.1,62.8,142,62.6z"/>
			<path class="st12" d="M149.8,60.1l1.6,5.1l1.8-5.1h1.2l-2.5,6.8h-1l-1.6-5.1l-1.7,5.1h-1.1l-2.4-6.8h1.3l1.7,5.1l1.7-5.1H149.8z"
				/>
			<path class="st12" d="M161.6,64.8c-0.2,0.5-0.8,2.3-3.1,2.3c-2,0-3.4-1.4-3.4-3.7c0-2.6,1.9-3.6,3.3-3.6c1.3,0,2.6,0.7,3,2.4
				c0.1,0.6,0.1,1.1,0.1,1.4h-5.2c0,1.1,0.6,2.6,2.2,2.6c1,0,1.6-0.7,1.8-1.6L161.6,64.8z M160.3,62.9c-0.1-1.8-1.4-2.1-2-2.1
				c-1,0-1.8,0.7-1.9,2.1H160.3z"/>
			<path class="st12" d="M164.2,60.1v1.2c0.7-1.3,1.9-1.3,2.4-1.3v1.2c-0.1,0-0.3,0-0.5,0c-0.7,0-1.2,0.3-1.6,0.8
				c-0.3,0.5-0.3,1.1-0.3,1.7v3.2h-1.2v-6.8H164.2z"/>
			<path class="st12" d="M168.8,56.7V58h-1.1v-1.3H168.8z M168.8,60.1v6.8h-1.1v-6.8H168.8z"/>
			<path class="st12" d="M171.8,60.1v1c0.6-1.1,1.7-1.2,2.1-1.2c0.9,0,1.9,0.4,2.3,1.6c0.1,0.4,0.1,0.8,0.1,1.4v4.1h-1.1v-3.9
				c0-0.7,0-0.9-0.1-1.1c-0.2-0.7-0.8-0.9-1.5-0.9c-0.5,0-0.9,0.2-1.3,0.5c-0.5,0.5-0.5,1-0.5,1.5v3.9h-1.2v-6.8H171.8z"/>
			<path class="st12" d="M184.5,60.1v6.5c0,0.8,0,1.7-0.4,2.4c-0.5,0.9-1.7,1.3-2.7,1.3c-0.7,0-1.5-0.2-2.1-0.6c-0.9-0.6-1-1.6-1-2
				h1.3c0,0.8,0.5,1.6,1.9,1.6c0.8,0,1.2-0.3,1.5-0.5c0.4-0.5,0.4-1,0.4-2.1v-0.8c-0.2,0.3-0.9,1.2-2.3,1.2c-1.7,0-3.2-1.2-3.2-3.6
				c0-2.8,1.8-3.7,3.2-3.7c0.6,0,1.5,0.2,2.2,1.1v-0.9H184.5z M179,63.5c0,0.4,0,1.2,0.5,1.8c0.5,0.6,1.1,0.8,1.7,0.8
				c0.7,0,1.3-0.3,1.7-0.9c0.4-0.6,0.5-1.4,0.5-1.8c0-2.3-1.7-2.5-2.2-2.5C179.9,60.9,179,61.9,179,63.5z"/>
			<path class="st12" d="M191.7,56.7v10.3h-1.4V56.7H191.7z"/>
			<path class="st12" d="M194.8,60.1v1c0.6-1.1,1.7-1.2,2.1-1.2c0.9,0,1.9,0.4,2.3,1.6c0.1,0.4,0.1,0.8,0.1,1.4v4.1h-1.1v-3.9
				c0-0.7,0-0.9-0.1-1.1c-0.2-0.7-0.8-0.9-1.5-0.9c-0.5,0-0.9,0.2-1.3,0.5c-0.5,0.5-0.5,1-0.5,1.5v3.9h-1.2v-6.8H194.8z"/>
			<path class="st12" d="M202.8,60.1h1.3v1h-1.3V65c0,0.8,0,1.2,0.5,1.2c0.2,0,0.5-0.1,0.8-0.2v1c-0.2,0-0.7,0.1-1.1,0.1
				c-1.3,0-1.3-0.7-1.3-1.6v-4.4h-1.1v-1h1.1v-2.2h1.2V60.1z"/>
			<path class="st12" d="M211.5,64.8c-0.2,0.5-0.8,2.3-3.1,2.3c-2,0-3.4-1.4-3.4-3.7c0-2.6,1.9-3.6,3.3-3.6c1.3,0,2.6,0.7,3,2.4
				c0.1,0.6,0.1,1.1,0.1,1.4h-5.2c0,1.1,0.6,2.6,2.2,2.6c1,0,1.6-0.7,1.8-1.6L211.5,64.8z M210.3,62.9c-0.1-1.8-1.4-2.1-2-2.1
				c-1,0-1.8,0.7-1.9,2.1H210.3z"/>
			<path class="st12" d="M214.1,56.7v10.3H213V56.7H214.1z"/>
			<path class="st12" d="M217.2,56.7v10.3H216V56.7H217.2z"/>
			<path class="st12" d="M220.2,56.7V58h-1.1v-1.3H220.2z M220.2,60.1v6.8h-1.1v-6.8H220.2z"/>
			<path class="st12" d="M228.4,60.1v6.5c0,0.8,0,1.7-0.4,2.4c-0.5,0.9-1.7,1.3-2.7,1.3c-0.7,0-1.5-0.2-2.1-0.6c-0.9-0.6-1-1.6-1-2
				h1.3c0,0.8,0.5,1.6,1.9,1.6c0.8,0,1.2-0.3,1.5-0.5c0.4-0.5,0.4-1,0.4-2.1v-0.8c-0.2,0.3-0.9,1.2-2.3,1.2c-1.7,0-3.2-1.2-3.2-3.6
				c0-2.8,1.8-3.7,3.2-3.7c0.6,0,1.5,0.2,2.2,1.1v-0.9H228.4z M222.9,63.5c0,0.4,0,1.2,0.5,1.8c0.5,0.6,1.1,0.8,1.7,0.8
				c0.7,0,1.3-0.3,1.7-0.9c0.4-0.6,0.5-1.4,0.5-1.8c0-2.3-1.7-2.5-2.2-2.5C223.8,60.9,222.9,61.9,222.9,63.5z"/>
			<path class="st12" d="M236.3,64.8c-0.2,0.5-0.8,2.3-3.1,2.3c-2,0-3.4-1.4-3.4-3.7c0-2.6,1.9-3.6,3.3-3.6c1.3,0,2.6,0.7,3,2.4
				c0.1,0.6,0.1,1.1,0.1,1.4h-5.2c0,1.1,0.6,2.6,2.2,2.6c1,0,1.6-0.7,1.8-1.6L236.3,64.8z M235.1,62.9c-0.1-1.8-1.4-2.1-2-2.1
				c-1,0-1.8,0.7-1.9,2.1H235.1z"/>
			<path class="st12" d="M239,60.1v1c0.6-1.1,1.7-1.2,2.1-1.2c0.9,0,1.9,0.4,2.3,1.6c0.1,0.4,0.1,0.8,0.1,1.4v4.1h-1.1v-3.9
				c0-0.7,0-0.9-0.1-1.1c-0.2-0.7-0.8-0.9-1.5-0.9c-0.5,0-0.9,0.2-1.3,0.5c-0.5,0.5-0.5,1-0.5,1.5v3.9h-1.2v-6.8H239z"/>
			<path class="st12" d="M251.6,64.5c0,0.3-0.1,0.7-0.4,1.2c-0.6,1-1.5,1.5-2.8,1.5c-2.5,0-3.4-1.9-3.4-3.6c0-1.9,1-3.7,3.3-3.7
				c1.1,0,2.7,0.4,3.2,2.3l-1.3,0.1c0-0.3-0.3-1.6-1.8-1.6c-2,0-2.1,2.2-2.1,2.8c0,0.7,0.1,1.4,0.4,1.8c0.4,0.6,1,0.9,1.7,0.9
				c1.7,0,1.9-1.4,1.9-1.9L251.6,64.5z"/>
			<path class="st12" d="M259,64.8c-0.2,0.5-0.8,2.3-3.1,2.3c-2,0-3.4-1.4-3.4-3.7c0-2.6,1.9-3.6,3.3-3.6c1.3,0,2.6,0.7,3,2.4
				c0.1,0.6,0.1,1.1,0.1,1.4h-5.2c0,1.1,0.6,2.6,2.2,2.6c1,0,1.6-0.7,1.8-1.6L259,64.8z M257.8,62.9c-0.1-1.8-1.4-2.1-2-2.1
				c-1,0-1.8,0.7-1.9,2.1H257.8z"/>
		</g>
	</g>
	<path class="st8" d="M56.2,40.4"/>
	<path class="st13" d="M52.9,31.7"/>
	<polygon class="st14" points="52.5,30.6 49.6,33.6 61.5,45.6 56.1,51 62.1,51 67.5,45.6 	"/>
	<path class="st15" d="M113.5,33.4c-2.4,0-4.2,0.5-5.5,1.4c-1.2,0.9-1.8,2.1-1.8,3.7c0,0.8,0.2,1.5,0.5,2.1c0.3,0.6,0.8,1.1,1.3,1.5
		c0.6,0.4,1.2,0.8,2,1c0.8,0.2,1.6,0.3,2.5,0.3c1.1,0,2.2-0.2,3.2-0.5c1-0.3,1.9-0.8,2.7-1.4c0.8-0.6,1.4-1.3,1.8-2.1
		c0.4-0.8,0.6-1.7,0.6-2.7v-2.3c-0.9-0.2-1.9-0.5-3.1-0.7C116.6,33.6,115.1,33.4,113.5,33.4z"/>
	<path class="st16" d="M54.6,41.6c-0.6,0.3-1.1,0.5-1.6,0.7c-1.3,0.5-2.8,0.7-4.3,0.7c-2,0-3.9-0.4-5.5-1.1
		c-1.7-0.8-3.1-1.8-4.3-3.1c-1.2-1.3-2.2-2.8-2.9-4.6c-0.7-1.7-1-3.6-1-5.6c0-2,0.3-3.9,1-5.6c0.7-1.7,1.6-3.3,2.8-4.5
		c1.2-1.3,2.6-2.3,4.3-3c1.7-0.7,3.5-1.1,5.5-1.1c2,0,3.8,0.4,5.5,1.1c1.7,0.8,3.1,1.8,4.3,3.1c1.2,1.3,2.2,2.8,2.9,4.6
		c0.7,1.8,1,3.6,1,5.6c0,1.7-0.3,3.4-0.8,4.9c-0.2,0.7-0.5,1.4-0.9,2l3.5,3.5c0.8-1.2,1.5-2.6,2-3.9c0.7-2.1,1.1-4.3,1.1-6.6
		c0-2.5-0.4-4.9-1.3-7.2c-0.9-2.3-2.1-4.3-3.8-6c-1.6-1.7-3.6-3.1-5.8-4.1c-2.3-1-4.8-1.5-7.5-1.5c-2.7,0-5.3,0.5-7.6,1.5
		c-2.3,1-4.2,2.4-5.9,4.1c-1.6,1.7-2.9,3.7-3.8,6c-0.9,2.3-1.3,4.7-1.3,7.2c0,2.5,0.4,4.9,1.3,7.2c0.9,2.2,2.1,4.3,3.8,6
		c1.6,1.7,3.6,3.1,5.8,4.1c2.3,1,4.8,1.5,7.5,1.5c2.3,0,4.4-0.3,6.3-1c1-0.3,2-0.8,3.1-1.5l0.1-0.1L54.6,41.6L54.6,41.6z"/>
	<path class="st16" d="M91.8,35.2c0,1.2-0.2,2.3-0.6,3.2c-0.4,1-0.9,1.8-1.6,2.5c-0.7,0.7-1.5,1.2-2.4,1.6c-0.9,0.4-1.9,0.6-3,0.6
		c-2.2,0-3.9-0.7-5.1-2c-1.2-1.4-1.8-3.2-1.8-5.6V19.8h-4.6v16.7c0,1.6,0.2,3.1,0.7,4.4c0.5,1.3,1.2,2.5,2.1,3.4
		c0.9,1,2,1.7,3.3,2.2c1.3,0.5,2.8,0.8,4.4,0.8c2.3,0,4.3-0.5,5.7-1.6C90.1,45,91,44,91.8,43v3.8h4.6v-27h-4.6V35.2z"/>
	<path class="st16" d="M113.7,19.4c-2,0-3.7,0.2-5.2,0.6c-1.5,0.4-3,0.9-4.5,1.6l-0.3,0.1l1.4,3.9l0.4-0.2c1.2-0.6,2.4-1,3.7-1.4
		c1.2-0.3,2.6-0.5,4.1-0.5c2.4,0,4.2,0.6,5.5,1.7c1.3,1.1,1.9,2.8,1.9,5.1v0.5c-1.1-0.3-2.1-0.5-3.3-0.7c-1.2-0.2-2.7-0.3-4.1-0.3
		c-1.9,0-3.7,0.2-5,0.6c-1.4,0.4-2.6,0.9-3.7,1.7c-1,0.7-1.9,1.7-2.4,2.8c-0.6,1.1-0.9,2.4-0.9,3.8c0,1.4,0.3,2.7,0.9,3.8
		c0.6,1,1.4,1.9,2.3,2.7c1,0.7,2.1,1.3,3.3,1.6c1.2,0.3,2.4,0.5,3.7,0.5c2.4,0,4.4-0.5,6-1.4c1.3-0.7,2.3-1.6,3.2-2.5v3.4h4.5V30.3
		c0-3.6-1-6.3-3-8.2C120.3,20.3,117.4,19.4,113.7,19.4z M120.9,36.7c0,1-0.2,1.9-0.6,2.7c-0.4,0.8-1,1.5-1.8,2.1
		c-0.8,0.6-1.7,1.1-2.7,1.4c-1,0.3-2.1,0.5-3.2,0.5c-0.9,0-1.7-0.1-2.5-0.3c-0.7-0.2-1.4-0.6-2-1c-0.6-0.4-1-0.9-1.3-1.5
		c-0.3-0.6-0.5-1.3-0.5-2.1c0-1.6,0.6-2.8,1.8-3.7c1.2-0.9,3.1-1.4,5.5-1.4c1.6,0,3,0.1,4.3,0.3c1.1,0.2,2.2,0.4,3.1,0.7V36.7z"/>
	<path class="st16" d="M152,24.1c-0.3-0.4-0.7-0.9-1.2-1.3c-0.7-0.7-1.4-1.3-2.3-1.8c-0.8-0.5-1.8-0.9-2.8-1.3
		c-1-0.3-2.2-0.5-3.3-0.5c-1.7,0-3.4,0.3-4.9,1c-1.5,0.6-2.9,1.6-4.1,2.8c-1.2,1.2-2.2,2.7-2.9,4.4c-0.7,1.7-1.1,3.7-1.1,5.9
		c0,2.2,0.4,4.2,1.1,5.9c0.7,1.7,1.7,3.2,2.9,4.4c1.2,1.2,2.6,2.1,4.1,2.7c1.5,0.6,3.1,0.9,4.8,0.9c1.3,0,2.4-0.2,3.4-0.5
		c1-0.3,2-0.8,2.8-1.3c0.8-0.5,1.6-1.2,2.3-1.9c0.4-0.5,0.8-0.9,1.2-1.4v4.6h4.6V8.9H152V24.1z M151.4,37.3
		c-0.5,1.2-1.2,2.3-2.1,3.1c-0.9,0.8-1.9,1.5-2.9,2c-1.1,0.5-2.2,0.7-3.4,0.7c-1.2,0-2.3-0.2-3.4-0.7c-1.1-0.4-2-1.1-2.8-2
		c-0.8-0.9-1.5-1.9-1.9-3.1c-0.5-1.2-0.7-2.6-0.7-4.1c0-1.5,0.2-2.9,0.7-4.1c0.5-1.2,1.1-2.3,1.9-3.1c0.8-0.8,1.7-1.5,2.8-1.9
		c1.1-0.4,2.2-0.7,3.5-0.7c1.2,0,2.3,0.2,3.4,0.7c1.1,0.5,2.1,1.1,2.9,2c0.9,0.8,1.6,1.9,2.1,3.1c0.5,1.2,0.8,2.6,0.8,4
		C152.1,34.7,151.9,36.1,151.4,37.3z"/>
	<path class="st16" d="M174,19.8c-1.1,0.3-2.2,0.9-3.1,1.6c-0.9,0.7-1.8,1.5-2.5,2.4c-0.4,0.5-0.8,1.1-1.2,1.7v-5.7h-4.6v27h4.6
		V35.9c0-1.9,0.3-3.6,0.8-5.1c0.5-1.5,1.3-2.7,2.2-3.7c0.9-1,2-1.7,3.2-2.2c1.2-0.5,2.5-0.7,3.9-0.7h0.7v-4.9l-0.7,0
		C176.1,19.3,175,19.5,174,19.8z"/>
	<rect x="182.5" y="19.8" class="st16" width="4.6" height="27"/>
	<rect x="182.3" y="9.7" class="st14" width="5.2" height="5"/>
	<path class="st16" d="M215.5,22.2c-0.9-1-2-1.7-3.3-2.2c-1.3-0.5-2.7-0.8-4.4-0.8c-2.3,0-4.3,0.5-5.7,1.6c-1.1,0.8-2.1,1.7-2.9,2.8
		v-3.8h-4.6v27h4.6V31.4c0-1.2,0.2-2.3,0.6-3.2c0.4-1,0.9-1.8,1.6-2.5c0.7-0.7,1.5-1.2,2.4-1.6c0.9-0.4,1.9-0.6,3-0.6
		c2.2,0,3.9,0.7,5.1,2c1.2,1.4,1.8,3.2,1.8,5.6v15.7h4.6V30.1c0-1.6-0.2-3.1-0.7-4.4C217,24.4,216.4,23.2,215.5,22.2z"/>
	<path class="st16" d="M238.2,23.9v-4.2h-8.3v-7.9h-4.6v7.9h-3.7v4.2h3.7v15.5c0,1.4,0.2,2.6,0.6,3.5c0.4,1,0.9,1.8,1.6,2.4
		c0.7,0.6,1.5,1.1,2.5,1.4c1,0.3,2,0.4,3.1,0.4c1,0,1.9-0.1,2.7-0.3c0.8-0.2,1.6-0.5,2.2-0.9l0.2-0.1v-4.1l-0.5,0.3
		c-0.6,0.3-1.3,0.6-1.8,0.7c-0.6,0.1-1.2,0.2-1.8,0.2c-1.2,0-2.2-0.3-3-0.9c-0.7-0.6-1.1-1.6-1.1-3.1v-15H238.2z"/>
</g>
<g id="w_x5F_blue_x5F_cmyk" class="st5">
	<g class="st6">
		<g>
			<path class="st0" d="M57.7,62.3v3.5h5.9v1.2h-7.2V56.7h7.1v1.2h-5.8v3.2h5v1.2H57.7z"/>
			<path class="st0" d="M68.3,60.1h1.3l-2.1,3.4l2.1,3.5h-1.3l-1.5-2.4l-1.4,2.4h-1.3l2.1-3.5l-2-3.4h1.3l1.4,2.4L68.3,60.1z"/>
			<path class="st0" d="M70.7,60.1h1.1v1c0.2-0.3,0.4-0.4,0.6-0.6c0.4-0.3,1.1-0.6,1.8-0.6c1.5,0,3.1,1.2,3.1,3.6
				c0,1.9-1,3.6-3.2,3.6c-0.9,0-1.7-0.3-2.3-1v4.1h-1.1V60.1z M71.8,63.6c0,1.5,0.7,2.5,2.1,2.5c0.4,0,0.8-0.1,1.2-0.3
				c0.4-0.2,1-0.9,1-2.3c0-1.6-0.9-2.6-2.2-2.5C72.6,61,71.8,62.1,71.8,63.6z"/>
			<path class="st0" d="M84.9,64.8c-0.2,0.5-0.8,2.3-3.1,2.3c-2,0-3.4-1.4-3.4-3.7c0-2.6,1.9-3.6,3.3-3.6c1.3,0,2.6,0.7,3,2.4
				c0.1,0.6,0.1,1.1,0.1,1.4h-5.2c0,1.1,0.6,2.6,2.2,2.6c1,0,1.6-0.7,1.8-1.6L84.9,64.8z M83.7,62.9c-0.1-1.8-1.4-2.1-2-2.1
				c-1,0-1.8,0.7-1.9,2.1H83.7z"/>
			<path class="st0" d="M87.6,60.1v1.2c0.7-1.3,1.9-1.3,2.4-1.3v1.2c-0.1,0-0.3,0-0.5,0c-0.7,0-1.2,0.3-1.6,0.8
				c-0.3,0.5-0.3,1.1-0.3,1.7v3.2h-1.2v-6.8H87.6z"/>
			<path class="st0" d="M92.2,56.7V58h-1.1v-1.3H92.2z M92.2,60.1v6.8h-1.1v-6.8H92.2z"/>
			<path class="st0" d="M100.1,64.8c-0.2,0.5-0.8,2.3-3.1,2.3c-2,0-3.4-1.4-3.4-3.7c0-2.6,1.9-3.6,3.3-3.6c1.3,0,2.6,0.7,3,2.4
				c0.1,0.6,0.1,1.1,0.1,1.4h-5.2c0,1.1,0.6,2.6,2.2,2.6c1,0,1.6-0.7,1.8-1.6L100.1,64.8z M98.8,62.9c-0.1-1.8-1.4-2.1-2-2.1
				c-1,0-1.8,0.7-1.9,2.1H98.8z"/>
			<path class="st0" d="M102.7,60.1v1c0.6-1.1,1.7-1.2,2.1-1.2c0.9,0,1.9,0.4,2.3,1.6c0.1,0.4,0.1,0.8,0.1,1.4v4.1h-1.1v-3.9
				c0-0.7,0-0.9-0.1-1.1c-0.2-0.7-0.8-0.9-1.5-0.9c-0.5,0-0.9,0.2-1.3,0.5c-0.5,0.5-0.5,1-0.5,1.5v3.9h-1.2v-6.8H102.7z"/>
			<path class="st0" d="M115.4,64.5c0,0.3-0.1,0.7-0.4,1.2c-0.6,1-1.5,1.5-2.8,1.5c-2.5,0-3.4-1.9-3.4-3.6c0-1.9,1-3.7,3.3-3.7
				c1.1,0,2.7,0.4,3.2,2.3l-1.3,0.1c0-0.3-0.3-1.6-1.8-1.6c-2,0-2.1,2.2-2.1,2.8c0,0.7,0.1,1.4,0.5,1.8c0.4,0.6,1,0.9,1.7,0.9
				c1.7,0,1.9-1.4,1.9-1.9L115.4,64.5z"/>
			<path class="st0" d="M122.8,64.8c-0.2,0.5-0.8,2.3-3.1,2.3c-2,0-3.4-1.4-3.4-3.7c0-2.6,1.9-3.6,3.3-3.6c1.3,0,2.6,0.7,3,2.4
				c0.1,0.6,0.1,1.1,0.1,1.4h-5.2c0,1.1,0.6,2.6,2.2,2.6c1,0,1.6-0.7,1.8-1.6L122.8,64.8z M121.5,62.9c-0.1-1.8-1.4-2.1-2-2.1
				c-1,0-1.8,0.7-1.9,2.1H121.5z"/>
			<path class="st0" d="M129.7,62.6v4.3h-1.3V56.7h4.4c0.5,0,1.1,0,1.6,0.2c1.2,0.4,1.8,1.5,1.8,2.7c0,1.1-0.5,2.4-1.9,2.8
				c-0.5,0.2-1,0.2-1.6,0.2H129.7z M129.7,61.4h2.9c0.8,0,1.3,0,1.8-0.5c0.3-0.3,0.5-0.9,0.5-1.4c0-0.3-0.1-0.9-0.5-1.3
				c-0.5-0.4-1-0.4-1.4-0.4h-3.2V61.4z"/>
			<path class="st0" d="M140,67.1c-2.4,0-3.4-1.8-3.4-3.6c0-1.5,0.8-3.7,3.4-3.7c2.3,0,3.3,1.8,3.3,3.6
				C143.4,65.6,142.1,67.1,140,67.1z M142,62.6c-0.3-1.4-1.1-1.7-1.9-1.7c-1.6,0-2.2,1.2-2.2,2.8c0,1.4,0.6,2.6,2.1,2.6
				c1.9,0,2.1-2,2.1-2.7C142.1,63.1,142.1,62.8,142,62.6z"/>
			<path class="st0" d="M149.8,60.1l1.6,5.1l1.8-5.1h1.2l-2.5,6.8h-1l-1.6-5.1l-1.7,5.1h-1.1l-2.4-6.8h1.3l1.7,5.1l1.7-5.1H149.8z"
				/>
			<path class="st0" d="M161.6,64.8c-0.2,0.5-0.8,2.3-3.1,2.3c-2,0-3.4-1.4-3.4-3.7c0-2.6,1.9-3.6,3.3-3.6c1.3,0,2.6,0.7,3,2.4
				c0.1,0.6,0.1,1.1,0.1,1.4h-5.2c0,1.1,0.6,2.6,2.2,2.6c1,0,1.6-0.7,1.8-1.6L161.6,64.8z M160.3,62.9c-0.1-1.8-1.4-2.1-2-2.1
				c-1,0-1.8,0.7-1.9,2.1H160.3z"/>
			<path class="st0" d="M164.2,60.1v1.2c0.7-1.3,1.9-1.3,2.4-1.3v1.2c-0.1,0-0.3,0-0.5,0c-0.7,0-1.2,0.3-1.6,0.8
				c-0.3,0.5-0.3,1.1-0.3,1.7v3.2h-1.2v-6.8H164.2z"/>
			<path class="st0" d="M168.8,56.7V58h-1.1v-1.3H168.8z M168.8,60.1v6.8h-1.1v-6.8H168.8z"/>
			<path class="st0" d="M171.8,60.1v1c0.6-1.1,1.7-1.2,2.1-1.2c0.9,0,1.9,0.4,2.3,1.6c0.1,0.4,0.1,0.8,0.1,1.4v4.1h-1.1v-3.9
				c0-0.7,0-0.9-0.1-1.1c-0.2-0.7-0.8-0.9-1.5-0.9c-0.5,0-0.9,0.2-1.3,0.5c-0.5,0.5-0.5,1-0.5,1.5v3.9h-1.2v-6.8H171.8z"/>
			<path class="st0" d="M184.5,60.1v6.5c0,0.8,0,1.7-0.4,2.4c-0.5,0.9-1.7,1.3-2.7,1.3c-0.7,0-1.5-0.2-2.1-0.6c-0.9-0.6-1-1.6-1-2
				h1.3c0,0.8,0.5,1.6,1.9,1.6c0.8,0,1.2-0.3,1.5-0.5c0.4-0.5,0.4-1,0.4-2.1v-0.8c-0.2,0.3-0.9,1.2-2.3,1.2c-1.7,0-3.2-1.2-3.2-3.6
				c0-2.8,1.8-3.7,3.2-3.7c0.6,0,1.5,0.2,2.2,1.1v-0.9H184.5z M179,63.5c0,0.4,0,1.2,0.5,1.8c0.5,0.6,1.1,0.8,1.7,0.8
				c0.7,0,1.3-0.3,1.7-0.9c0.4-0.6,0.5-1.4,0.5-1.8c0-2.3-1.7-2.5-2.2-2.5C179.9,60.9,179,61.9,179,63.5z"/>
			<path class="st0" d="M191.7,56.7v10.3h-1.4V56.7H191.7z"/>
			<path class="st0" d="M194.8,60.1v1c0.6-1.1,1.7-1.2,2.1-1.2c0.9,0,1.9,0.4,2.3,1.6c0.1,0.4,0.1,0.8,0.1,1.4v4.1h-1.1v-3.9
				c0-0.7,0-0.9-0.1-1.1c-0.2-0.7-0.8-0.9-1.5-0.9c-0.5,0-0.9,0.2-1.3,0.5c-0.5,0.5-0.5,1-0.5,1.5v3.9h-1.2v-6.8H194.8z"/>
			<path class="st0" d="M202.8,60.1h1.3v1h-1.3V65c0,0.8,0,1.2,0.5,1.2c0.2,0,0.5-0.1,0.8-0.2v1c-0.2,0-0.7,0.1-1.1,0.1
				c-1.3,0-1.3-0.7-1.3-1.6v-4.4h-1.1v-1h1.1v-2.2h1.2V60.1z"/>
			<path class="st0" d="M211.5,64.8c-0.2,0.5-0.8,2.3-3.1,2.3c-2,0-3.4-1.4-3.4-3.7c0-2.6,1.9-3.6,3.3-3.6c1.3,0,2.6,0.7,3,2.4
				c0.1,0.6,0.1,1.1,0.1,1.4h-5.2c0,1.1,0.6,2.6,2.2,2.6c1,0,1.6-0.7,1.8-1.6L211.5,64.8z M210.3,62.9c-0.1-1.8-1.4-2.1-2-2.1
				c-1,0-1.8,0.7-1.9,2.1H210.3z"/>
			<path class="st0" d="M214.1,56.7v10.3H213V56.7H214.1z"/>
			<path class="st0" d="M217.2,56.7v10.3H216V56.7H217.2z"/>
			<path class="st0" d="M220.2,56.7V58h-1.1v-1.3H220.2z M220.2,60.1v6.8h-1.1v-6.8H220.2z"/>
			<path class="st0" d="M228.4,60.1v6.5c0,0.8,0,1.7-0.4,2.4c-0.5,0.9-1.7,1.3-2.7,1.3c-0.7,0-1.5-0.2-2.1-0.6c-0.9-0.6-1-1.6-1-2
				h1.3c0,0.8,0.5,1.6,1.9,1.6c0.8,0,1.2-0.3,1.5-0.5c0.4-0.5,0.4-1,0.4-2.1v-0.8c-0.2,0.3-0.9,1.2-2.3,1.2c-1.7,0-3.2-1.2-3.2-3.6
				c0-2.8,1.8-3.7,3.2-3.7c0.6,0,1.5,0.2,2.2,1.1v-0.9H228.4z M222.9,63.5c0,0.4,0,1.2,0.5,1.8c0.5,0.6,1.1,0.8,1.7,0.8
				c0.7,0,1.3-0.3,1.7-0.9c0.4-0.6,0.5-1.4,0.5-1.8c0-2.3-1.7-2.5-2.2-2.5C223.8,60.9,222.9,61.9,222.9,63.5z"/>
			<path class="st0" d="M236.3,64.8c-0.2,0.5-0.8,2.3-3.1,2.3c-2,0-3.4-1.4-3.4-3.7c0-2.6,1.9-3.6,3.3-3.6c1.3,0,2.6,0.7,3,2.4
				c0.1,0.6,0.1,1.1,0.1,1.4h-5.2c0,1.1,0.6,2.6,2.2,2.6c1,0,1.6-0.7,1.8-1.6L236.3,64.8z M235.1,62.9c-0.1-1.8-1.4-2.1-2-2.1
				c-1,0-1.8,0.7-1.9,2.1H235.1z"/>
			<path class="st0" d="M239,60.1v1c0.6-1.1,1.7-1.2,2.1-1.2c0.9,0,1.9,0.4,2.3,1.6c0.1,0.4,0.1,0.8,0.1,1.4v4.1h-1.1v-3.9
				c0-0.7,0-0.9-0.1-1.1c-0.2-0.7-0.8-0.9-1.5-0.9c-0.5,0-0.9,0.2-1.3,0.5c-0.5,0.5-0.5,1-0.5,1.5v3.9h-1.2v-6.8H239z"/>
			<path class="st0" d="M251.6,64.5c0,0.3-0.1,0.7-0.4,1.2c-0.6,1-1.5,1.5-2.8,1.5c-2.5,0-3.4-1.9-3.4-3.6c0-1.9,1-3.7,3.3-3.7
				c1.1,0,2.7,0.4,3.2,2.3l-1.3,0.1c0-0.3-0.3-1.6-1.8-1.6c-2,0-2.1,2.2-2.1,2.8c0,0.7,0.1,1.4,0.4,1.8c0.4,0.6,1,0.9,1.7,0.9
				c1.7,0,1.9-1.4,1.9-1.9L251.6,64.5z"/>
			<path class="st0" d="M259,64.8c-0.2,0.5-0.8,2.3-3.1,2.3c-2,0-3.4-1.4-3.4-3.7c0-2.6,1.9-3.6,3.3-3.6c1.3,0,2.6,0.7,3,2.4
				c0.1,0.6,0.1,1.1,0.1,1.4h-5.2c0,1.1,0.6,2.6,2.2,2.6c1,0,1.6-0.7,1.8-1.6L259,64.8z M257.8,62.9c-0.1-1.8-1.4-2.1-2-2.1
				c-1,0-1.8,0.7-1.9,2.1H257.8z"/>
		</g>
	</g>
	<path class="st8" d="M56.2,40.4"/>
	<path class="st17" d="M52.9,31.7"/>
	<polygon class="st18" points="52.5,30.6 49.6,33.6 61.5,45.6 56.1,51 62.1,51 67.5,45.6 	"/>
	<path class="st19" d="M54.6,41.6c-0.6,0.3-1.1,0.5-1.6,0.7c-1.3,0.5-2.8,0.7-4.3,0.7c-2,0-3.9-0.4-5.5-1.1
		c-1.7-0.8-3.1-1.8-4.3-3.1c-1.2-1.3-2.2-2.8-2.9-4.6c-0.7-1.7-1-3.6-1-5.6c0-2,0.3-3.9,1-5.6c0.7-1.7,1.6-3.3,2.8-4.5
		c1.2-1.3,2.6-2.3,4.3-3c1.7-0.7,3.5-1.1,5.5-1.1c2,0,3.8,0.4,5.5,1.1c1.7,0.8,3.1,1.8,4.3,3.1c1.2,1.3,2.2,2.8,2.9,4.6
		c0.7,1.8,1,3.6,1,5.6c0,1.7-0.3,3.4-0.8,4.9c-0.2,0.7-0.5,1.4-0.9,2l3.5,3.5c0.8-1.2,1.5-2.6,2-3.9c0.7-2.1,1.1-4.3,1.1-6.6
		c0-2.5-0.4-4.9-1.3-7.2c-0.9-2.3-2.1-4.3-3.8-6c-1.6-1.7-3.6-3.1-5.8-4.1c-2.3-1-4.8-1.5-7.5-1.5c-2.7,0-5.3,0.5-7.6,1.5
		c-2.3,1-4.2,2.4-5.9,4.1c-1.6,1.7-2.9,3.7-3.8,6c-0.9,2.3-1.3,4.7-1.3,7.2c0,2.5,0.4,4.9,1.3,7.2c0.9,2.2,2.1,4.3,3.8,6
		c1.6,1.7,3.6,3.1,5.8,4.1c2.3,1,4.8,1.5,7.5,1.5c2.3,0,4.4-0.3,6.3-1c1-0.3,2-0.8,3.1-1.5l0.1-0.1L54.6,41.6L54.6,41.6z"/>
	<path class="st19" d="M91.8,35.2c0,1.2-0.2,2.3-0.6,3.2c-0.4,1-0.9,1.8-1.6,2.5c-0.7,0.7-1.5,1.2-2.4,1.6c-0.9,0.4-1.9,0.6-3,0.6
		c-2.2,0-3.9-0.7-5.1-2c-1.2-1.4-1.8-3.2-1.8-5.6V19.8h-4.6v16.7c0,1.6,0.2,3.1,0.7,4.4c0.5,1.3,1.2,2.5,2.1,3.4
		c0.9,1,2,1.7,3.3,2.2c1.3,0.5,2.8,0.8,4.4,0.8c2.3,0,4.3-0.5,5.7-1.6C90.1,45,91,44,91.8,43v3.8h4.6v-27h-4.6V35.2z"/>
	<path class="st19" d="M113.7,19.4c-2,0-3.7,0.2-5.2,0.6c-1.5,0.4-3,0.9-4.5,1.6l-0.3,0.1l1.4,3.9l0.4-0.2c1.2-0.6,2.4-1,3.7-1.4
		c1.2-0.3,2.6-0.5,4.1-0.5c2.4,0,4.2,0.6,5.5,1.7c1.3,1.1,1.9,2.8,1.9,5.1v0.5c-1.1-0.3-2.1-0.5-3.3-0.7c-1.2-0.2-2.7-0.3-4.1-0.3
		c-1.9,0-3.7,0.2-5,0.6c-1.4,0.4-2.6,0.9-3.7,1.7c-1,0.7-1.9,1.7-2.4,2.8c-0.6,1.1-0.9,2.4-0.9,3.8c0,1.4,0.3,2.7,0.9,3.8
		c0.6,1,1.4,1.9,2.3,2.7c1,0.7,2.1,1.3,3.3,1.6c1.2,0.3,2.4,0.5,3.7,0.5c2.4,0,4.4-0.5,6-1.4c1.3-0.7,2.3-1.6,3.2-2.5v3.4h4.5V30.3
		c0-3.6-1-6.3-3-8.2C120.3,20.3,117.4,19.4,113.7,19.4z M120.9,36.7c0,1-0.2,1.9-0.6,2.7c-0.4,0.8-1,1.5-1.8,2.1
		c-0.8,0.6-1.7,1.1-2.7,1.4c-1,0.3-2.1,0.5-3.2,0.5c-0.9,0-1.7-0.1-2.5-0.3c-0.7-0.2-1.4-0.6-2-1c-0.6-0.4-1-0.9-1.3-1.5
		c-0.3-0.6-0.5-1.3-0.5-2.1c0-1.6,0.6-2.8,1.8-3.7c1.2-0.9,3.1-1.4,5.5-1.4c1.6,0,3,0.1,4.3,0.3c1.1,0.2,2.2,0.4,3.1,0.7V36.7z"/>
	<path class="st19" d="M152,24.1c-0.3-0.4-0.7-0.9-1.2-1.3c-0.7-0.7-1.4-1.3-2.3-1.8c-0.8-0.5-1.8-0.9-2.8-1.3
		c-1-0.3-2.2-0.5-3.3-0.5c-1.7,0-3.4,0.3-4.9,1c-1.5,0.6-2.9,1.6-4.1,2.8c-1.2,1.2-2.2,2.7-2.9,4.4c-0.7,1.7-1.1,3.7-1.1,5.9
		c0,2.2,0.4,4.2,1.1,5.9c0.7,1.7,1.7,3.2,2.9,4.4c1.2,1.2,2.6,2.1,4.1,2.7c1.5,0.6,3.1,0.9,4.8,0.9c1.3,0,2.4-0.2,3.4-0.5
		c1-0.3,2-0.8,2.8-1.3c0.8-0.5,1.6-1.2,2.3-1.9c0.4-0.5,0.8-0.9,1.2-1.4v4.6h4.6V8.9H152V24.1z M151.4,37.3
		c-0.5,1.2-1.2,2.3-2.1,3.1c-0.9,0.8-1.9,1.5-2.9,2c-1.1,0.5-2.2,0.7-3.4,0.7c-1.2,0-2.3-0.2-3.4-0.7c-1.1-0.4-2-1.1-2.8-2
		c-0.8-0.9-1.5-1.9-1.9-3.1c-0.5-1.2-0.7-2.6-0.7-4.1c0-1.5,0.2-2.9,0.7-4.1c0.5-1.2,1.1-2.3,1.9-3.1c0.8-0.8,1.7-1.5,2.8-1.9
		c1.1-0.4,2.2-0.7,3.5-0.7c1.2,0,2.3,0.2,3.4,0.7c1.1,0.5,2.1,1.1,2.9,2c0.9,0.8,1.6,1.9,2.1,3.1c0.5,1.2,0.8,2.6,0.8,4
		C152.1,34.7,151.9,36.1,151.4,37.3z"/>
	<path class="st19" d="M174,19.8c-1.1,0.3-2.2,0.9-3.1,1.6c-0.9,0.7-1.8,1.5-2.5,2.4c-0.4,0.5-0.8,1.1-1.2,1.7v-5.7h-4.6v27h4.6
		V35.9c0-1.9,0.3-3.6,0.8-5.1c0.5-1.5,1.3-2.7,2.2-3.7c0.9-1,2-1.7,3.2-2.2c1.2-0.5,2.5-0.7,3.9-0.7h0.7v-4.9l-0.7,0
		C176.1,19.3,175,19.5,174,19.8z"/>
	<rect x="182.5" y="19.8" class="st19" width="4.6" height="27"/>
	<path class="st19" d="M215.5,22.2c-0.9-1-2-1.7-3.3-2.2c-1.3-0.5-2.7-0.8-4.4-0.8c-2.3,0-4.3,0.5-5.7,1.6c-1.1,0.8-2.1,1.7-2.9,2.8
		v-3.8h-4.6v27h4.6V31.4c0-1.2,0.2-2.3,0.6-3.2c0.4-1,0.9-1.8,1.6-2.5c0.7-0.7,1.5-1.2,2.4-1.6c0.9-0.4,1.9-0.6,3-0.6
		c2.2,0,3.9,0.7,5.1,2c1.2,1.4,1.8,3.2,1.8,5.6v15.7h4.6V30.1c0-1.6-0.2-3.1-0.7-4.4C217,24.4,216.4,23.2,215.5,22.2z"/>
	<path class="st19" d="M238.2,23.9v-4.2h-8.3v-7.9h-4.6v7.9h-3.7v4.2h3.7v15.5c0,1.4,0.2,2.6,0.6,3.5c0.4,1,0.9,1.8,1.6,2.4
		c0.7,0.6,1.5,1.1,2.5,1.4c1,0.3,2,0.4,3.1,0.4c1,0,1.9-0.1,2.7-0.3c0.8-0.2,1.6-0.5,2.2-0.9l0.2-0.1v-4.1l-0.5,0.3
		c-0.6,0.3-1.3,0.6-1.8,0.7c-0.6,0.1-1.2,0.2-1.8,0.2c-1.2,0-2.2-0.3-3-0.9c-0.7-0.6-1.1-1.6-1.1-3.1v-15H238.2z"/>
	<rect x="182.3" y="9.7" class="st18" width="5.2" height="5"/>
</g>
<g id="w_x5F_blue_x5F_pms" class="st5">
	<g class="st6">
		<g>
			<path class="st7" d="M57.7,62.3v3.5h5.9v1.2h-7.2V56.7h7.1v1.2h-5.8v3.2h5v1.2H57.7z"/>
			<path class="st7" d="M68.3,60.1h1.3l-2.1,3.4l2.1,3.5h-1.3l-1.5-2.4l-1.4,2.4h-1.3l2.1-3.5l-2-3.4h1.3l1.4,2.4L68.3,60.1z"/>
			<path class="st7" d="M70.7,60.1h1.1v1c0.2-0.3,0.4-0.4,0.6-0.6c0.4-0.3,1.1-0.6,1.8-0.6c1.5,0,3.1,1.2,3.1,3.6
				c0,1.9-1,3.6-3.2,3.6c-0.9,0-1.7-0.3-2.3-1v4.1h-1.1V60.1z M71.8,63.6c0,1.5,0.7,2.5,2.1,2.5c0.4,0,0.8-0.1,1.2-0.3
				c0.4-0.2,1-0.9,1-2.3c0-1.6-0.9-2.6-2.2-2.5C72.6,61,71.8,62.1,71.8,63.6z"/>
			<path class="st7" d="M84.9,64.8c-0.2,0.5-0.8,2.3-3.1,2.3c-2,0-3.4-1.4-3.4-3.7c0-2.6,1.9-3.6,3.3-3.6c1.3,0,2.6,0.7,3,2.4
				c0.1,0.6,0.1,1.1,0.1,1.4h-5.2c0,1.1,0.6,2.6,2.2,2.6c1,0,1.6-0.7,1.8-1.6L84.9,64.8z M83.7,62.9c-0.1-1.8-1.4-2.1-2-2.1
				c-1,0-1.8,0.7-1.9,2.1H83.7z"/>
			<path class="st7" d="M87.6,60.1v1.2c0.7-1.3,1.9-1.3,2.4-1.3v1.2c-0.1,0-0.3,0-0.5,0c-0.7,0-1.2,0.3-1.6,0.8
				c-0.3,0.5-0.3,1.1-0.3,1.7v3.2h-1.2v-6.8H87.6z"/>
			<path class="st7" d="M92.2,56.7V58h-1.1v-1.3H92.2z M92.2,60.1v6.8h-1.1v-6.8H92.2z"/>
			<path class="st7" d="M100.1,64.8c-0.2,0.5-0.8,2.3-3.1,2.3c-2,0-3.4-1.4-3.4-3.7c0-2.6,1.9-3.6,3.3-3.6c1.3,0,2.6,0.7,3,2.4
				c0.1,0.6,0.1,1.1,0.1,1.4h-5.2c0,1.1,0.6,2.6,2.2,2.6c1,0,1.6-0.7,1.8-1.6L100.1,64.8z M98.8,62.9c-0.1-1.8-1.4-2.1-2-2.1
				c-1,0-1.8,0.7-1.9,2.1H98.8z"/>
			<path class="st7" d="M102.7,60.1v1c0.6-1.1,1.7-1.2,2.1-1.2c0.9,0,1.9,0.4,2.3,1.6c0.1,0.4,0.1,0.8,0.1,1.4v4.1h-1.1v-3.9
				c0-0.7,0-0.9-0.1-1.1c-0.2-0.7-0.8-0.9-1.5-0.9c-0.5,0-0.9,0.2-1.3,0.5c-0.5,0.5-0.5,1-0.5,1.5v3.9h-1.2v-6.8H102.7z"/>
			<path class="st7" d="M115.4,64.5c0,0.3-0.1,0.7-0.4,1.2c-0.6,1-1.5,1.5-2.8,1.5c-2.5,0-3.4-1.9-3.4-3.6c0-1.9,1-3.7,3.3-3.7
				c1.1,0,2.7,0.4,3.2,2.3l-1.3,0.1c0-0.3-0.3-1.6-1.8-1.6c-2,0-2.1,2.2-2.1,2.8c0,0.7,0.1,1.4,0.5,1.8c0.4,0.6,1,0.9,1.7,0.9
				c1.7,0,1.9-1.4,1.9-1.9L115.4,64.5z"/>
			<path class="st7" d="M122.8,64.8c-0.2,0.5-0.8,2.3-3.1,2.3c-2,0-3.4-1.4-3.4-3.7c0-2.6,1.9-3.6,3.3-3.6c1.3,0,2.6,0.7,3,2.4
				c0.1,0.6,0.1,1.1,0.1,1.4h-5.2c0,1.1,0.6,2.6,2.2,2.6c1,0,1.6-0.7,1.8-1.6L122.8,64.8z M121.5,62.9c-0.1-1.8-1.4-2.1-2-2.1
				c-1,0-1.8,0.7-1.9,2.1H121.5z"/>
			<path class="st7" d="M129.7,62.6v4.3h-1.3V56.7h4.4c0.5,0,1.1,0,1.6,0.2c1.2,0.4,1.8,1.5,1.8,2.7c0,1.1-0.5,2.4-1.9,2.8
				c-0.5,0.2-1,0.2-1.6,0.2H129.7z M129.7,61.4h2.9c0.8,0,1.3,0,1.8-0.5c0.3-0.3,0.5-0.9,0.5-1.4c0-0.3-0.1-0.9-0.5-1.3
				c-0.5-0.4-1-0.4-1.4-0.4h-3.2V61.4z"/>
			<path class="st7" d="M140,67.1c-2.4,0-3.4-1.8-3.4-3.6c0-1.5,0.8-3.7,3.4-3.7c2.3,0,3.3,1.8,3.3,3.6
				C143.4,65.6,142.1,67.1,140,67.1z M142,62.6c-0.3-1.4-1.1-1.7-1.9-1.7c-1.6,0-2.2,1.2-2.2,2.8c0,1.4,0.6,2.6,2.1,2.6
				c1.9,0,2.1-2,2.1-2.7C142.1,63.1,142.1,62.8,142,62.6z"/>
			<path class="st7" d="M149.8,60.1l1.6,5.1l1.8-5.1h1.2l-2.5,6.8h-1l-1.6-5.1l-1.7,5.1h-1.1l-2.4-6.8h1.3l1.7,5.1l1.7-5.1H149.8z"
				/>
			<path class="st7" d="M161.6,64.8c-0.2,0.5-0.8,2.3-3.1,2.3c-2,0-3.4-1.4-3.4-3.7c0-2.6,1.9-3.6,3.3-3.6c1.3,0,2.6,0.7,3,2.4
				c0.1,0.6,0.1,1.1,0.1,1.4h-5.2c0,1.1,0.6,2.6,2.2,2.6c1,0,1.6-0.7,1.8-1.6L161.6,64.8z M160.3,62.9c-0.1-1.8-1.4-2.1-2-2.1
				c-1,0-1.8,0.7-1.9,2.1H160.3z"/>
			<path class="st7" d="M164.2,60.1v1.2c0.7-1.3,1.9-1.3,2.4-1.3v1.2c-0.1,0-0.3,0-0.5,0c-0.7,0-1.2,0.3-1.6,0.8
				c-0.3,0.5-0.3,1.1-0.3,1.7v3.2h-1.2v-6.8H164.2z"/>
			<path class="st7" d="M168.8,56.7V58h-1.1v-1.3H168.8z M168.8,60.1v6.8h-1.1v-6.8H168.8z"/>
			<path class="st7" d="M171.8,60.1v1c0.6-1.1,1.7-1.2,2.1-1.2c0.9,0,1.9,0.4,2.3,1.6c0.1,0.4,0.1,0.8,0.1,1.4v4.1h-1.1v-3.9
				c0-0.7,0-0.9-0.1-1.1c-0.2-0.7-0.8-0.9-1.5-0.9c-0.5,0-0.9,0.2-1.3,0.5c-0.5,0.5-0.5,1-0.5,1.5v3.9h-1.2v-6.8H171.8z"/>
			<path class="st7" d="M184.5,60.1v6.5c0,0.8,0,1.7-0.4,2.4c-0.5,0.9-1.7,1.3-2.7,1.3c-0.7,0-1.5-0.2-2.1-0.6c-0.9-0.6-1-1.6-1-2
				h1.3c0,0.8,0.5,1.6,1.9,1.6c0.8,0,1.2-0.3,1.5-0.5c0.4-0.5,0.4-1,0.4-2.1v-0.8c-0.2,0.3-0.9,1.2-2.3,1.2c-1.7,0-3.2-1.2-3.2-3.6
				c0-2.8,1.8-3.7,3.2-3.7c0.6,0,1.5,0.2,2.2,1.1v-0.9H184.5z M179,63.5c0,0.4,0,1.2,0.5,1.8c0.5,0.6,1.1,0.8,1.7,0.8
				c0.7,0,1.3-0.3,1.7-0.9c0.4-0.6,0.5-1.4,0.5-1.8c0-2.3-1.7-2.5-2.2-2.5C179.9,60.9,179,61.9,179,63.5z"/>
			<path class="st7" d="M191.7,56.7v10.3h-1.4V56.7H191.7z"/>
			<path class="st7" d="M194.8,60.1v1c0.6-1.1,1.7-1.2,2.1-1.2c0.9,0,1.9,0.4,2.3,1.6c0.1,0.4,0.1,0.8,0.1,1.4v4.1h-1.1v-3.9
				c0-0.7,0-0.9-0.1-1.1c-0.2-0.7-0.8-0.9-1.5-0.9c-0.5,0-0.9,0.2-1.3,0.5c-0.5,0.5-0.5,1-0.5,1.5v3.9h-1.2v-6.8H194.8z"/>
			<path class="st7" d="M202.8,60.1h1.3v1h-1.3V65c0,0.8,0,1.2,0.5,1.2c0.2,0,0.5-0.1,0.8-0.2v1c-0.2,0-0.7,0.1-1.1,0.1
				c-1.3,0-1.3-0.7-1.3-1.6v-4.4h-1.1v-1h1.1v-2.2h1.2V60.1z"/>
			<path class="st7" d="M211.5,64.8c-0.2,0.5-0.8,2.3-3.1,2.3c-2,0-3.4-1.4-3.4-3.7c0-2.6,1.9-3.6,3.3-3.6c1.3,0,2.6,0.7,3,2.4
				c0.1,0.6,0.1,1.1,0.1,1.4h-5.2c0,1.1,0.6,2.6,2.2,2.6c1,0,1.6-0.7,1.8-1.6L211.5,64.8z M210.3,62.9c-0.1-1.8-1.4-2.1-2-2.1
				c-1,0-1.8,0.7-1.9,2.1H210.3z"/>
			<path class="st7" d="M214.1,56.7v10.3H213V56.7H214.1z"/>
			<path class="st7" d="M217.2,56.7v10.3H216V56.7H217.2z"/>
			<path class="st7" d="M220.2,56.7V58h-1.1v-1.3H220.2z M220.2,60.1v6.8h-1.1v-6.8H220.2z"/>
			<path class="st7" d="M228.4,60.1v6.5c0,0.8,0,1.7-0.4,2.4c-0.5,0.9-1.7,1.3-2.7,1.3c-0.7,0-1.5-0.2-2.1-0.6c-0.9-0.6-1-1.6-1-2
				h1.3c0,0.8,0.5,1.6,1.9,1.6c0.8,0,1.2-0.3,1.5-0.5c0.4-0.5,0.4-1,0.4-2.1v-0.8c-0.2,0.3-0.9,1.2-2.3,1.2c-1.7,0-3.2-1.2-3.2-3.6
				c0-2.8,1.8-3.7,3.2-3.7c0.6,0,1.5,0.2,2.2,1.1v-0.9H228.4z M222.9,63.5c0,0.4,0,1.2,0.5,1.8c0.5,0.6,1.1,0.8,1.7,0.8
				c0.7,0,1.3-0.3,1.7-0.9c0.4-0.6,0.5-1.4,0.5-1.8c0-2.3-1.7-2.5-2.2-2.5C223.8,60.9,222.9,61.9,222.9,63.5z"/>
			<path class="st7" d="M236.3,64.8c-0.2,0.5-0.8,2.3-3.1,2.3c-2,0-3.4-1.4-3.4-3.7c0-2.6,1.9-3.6,3.3-3.6c1.3,0,2.6,0.7,3,2.4
				c0.1,0.6,0.1,1.1,0.1,1.4h-5.2c0,1.1,0.6,2.6,2.2,2.6c1,0,1.6-0.7,1.8-1.6L236.3,64.8z M235.1,62.9c-0.1-1.8-1.4-2.1-2-2.1
				c-1,0-1.8,0.7-1.9,2.1H235.1z"/>
			<path class="st7" d="M239,60.1v1c0.6-1.1,1.7-1.2,2.1-1.2c0.9,0,1.9,0.4,2.3,1.6c0.1,0.4,0.1,0.8,0.1,1.4v4.1h-1.1v-3.9
				c0-0.7,0-0.9-0.1-1.1c-0.2-0.7-0.8-0.9-1.5-0.9c-0.5,0-0.9,0.2-1.3,0.5c-0.5,0.5-0.5,1-0.5,1.5v3.9h-1.2v-6.8H239z"/>
			<path class="st7" d="M251.6,64.5c0,0.3-0.1,0.7-0.4,1.2c-0.6,1-1.5,1.5-2.8,1.5c-2.5,0-3.4-1.9-3.4-3.6c0-1.9,1-3.7,3.3-3.7
				c1.1,0,2.7,0.4,3.2,2.3l-1.3,0.1c0-0.3-0.3-1.6-1.8-1.6c-2,0-2.1,2.2-2.1,2.8c0,0.7,0.1,1.4,0.4,1.8c0.4,0.6,1,0.9,1.7,0.9
				c1.7,0,1.9-1.4,1.9-1.9L251.6,64.5z"/>
			<path class="st7" d="M259,64.8c-0.2,0.5-0.8,2.3-3.1,2.3c-2,0-3.4-1.4-3.4-3.7c0-2.6,1.9-3.6,3.3-3.6c1.3,0,2.6,0.7,3,2.4
				c0.1,0.6,0.1,1.1,0.1,1.4h-5.2c0,1.1,0.6,2.6,2.2,2.6c1,0,1.6-0.7,1.8-1.6L259,64.8z M257.8,62.9c-0.1-1.8-1.4-2.1-2-2.1
				c-1,0-1.8,0.7-1.9,2.1H257.8z"/>
		</g>
	</g>
	<path class="st8" d="M56.2,40.4"/>
	<path class="st17" d="M52.9,31.7"/>
	<polygon class="st10" points="52.5,30.6 49.6,33.6 61.5,45.6 56.1,51 62.1,51 67.5,45.6 	"/>
	<path class="st19" d="M54.6,41.6c-0.6,0.3-1.1,0.5-1.6,0.7c-1.3,0.5-2.8,0.7-4.3,0.7c-2,0-3.9-0.4-5.5-1.1
		c-1.7-0.8-3.1-1.8-4.3-3.1c-1.2-1.3-2.2-2.8-2.9-4.6c-0.7-1.7-1-3.6-1-5.6c0-2,0.3-3.9,1-5.6c0.7-1.7,1.6-3.3,2.8-4.5
		c1.2-1.3,2.6-2.3,4.3-3c1.7-0.7,3.5-1.1,5.5-1.1c2,0,3.8,0.4,5.5,1.1c1.7,0.8,3.1,1.8,4.3,3.1c1.2,1.3,2.2,2.8,2.9,4.6
		c0.7,1.8,1,3.6,1,5.6c0,1.7-0.3,3.4-0.8,4.9c-0.2,0.7-0.5,1.4-0.9,2l3.5,3.5c0.8-1.2,1.5-2.6,2-3.9c0.7-2.1,1.1-4.3,1.1-6.6
		c0-2.5-0.4-4.9-1.3-7.2c-0.9-2.3-2.1-4.3-3.8-6c-1.6-1.7-3.6-3.1-5.8-4.1c-2.3-1-4.8-1.5-7.5-1.5c-2.7,0-5.3,0.5-7.6,1.5
		c-2.3,1-4.2,2.4-5.9,4.1c-1.6,1.7-2.9,3.7-3.8,6c-0.9,2.3-1.3,4.7-1.3,7.2c0,2.5,0.4,4.9,1.3,7.2c0.9,2.2,2.1,4.3,3.8,6
		c1.6,1.7,3.6,3.1,5.8,4.1c2.3,1,4.8,1.5,7.5,1.5c2.3,0,4.4-0.3,6.3-1c1-0.3,2-0.8,3.1-1.5l0.1-0.1L54.6,41.6L54.6,41.6z"/>
	<path class="st19" d="M91.8,35.2c0,1.2-0.2,2.3-0.6,3.2c-0.4,1-0.9,1.8-1.6,2.5c-0.7,0.7-1.5,1.2-2.4,1.6c-0.9,0.4-1.9,0.6-3,0.6
		c-2.2,0-3.9-0.7-5.1-2c-1.2-1.4-1.8-3.2-1.8-5.6V19.8h-4.6v16.7c0,1.6,0.2,3.1,0.7,4.4c0.5,1.3,1.2,2.5,2.1,3.4
		c0.9,1,2,1.7,3.3,2.2c1.3,0.5,2.8,0.8,4.4,0.8c2.3,0,4.3-0.5,5.7-1.6C90.1,45,91,44,91.8,43v3.8h4.6v-27h-4.6V35.2z"/>
	<path class="st19" d="M113.7,19.4c-2,0-3.7,0.2-5.2,0.6c-1.5,0.4-3,0.9-4.5,1.6l-0.3,0.1l1.4,3.9l0.4-0.2c1.2-0.6,2.4-1,3.7-1.4
		c1.2-0.3,2.6-0.5,4.1-0.5c2.4,0,4.2,0.6,5.5,1.7c1.3,1.1,1.9,2.8,1.9,5.1v0.5c-1.1-0.3-2.1-0.5-3.3-0.7c-1.2-0.2-2.7-0.3-4.1-0.3
		c-1.9,0-3.7,0.2-5,0.6c-1.4,0.4-2.6,0.9-3.7,1.7c-1,0.7-1.9,1.7-2.4,2.8c-0.6,1.1-0.9,2.4-0.9,3.8c0,1.4,0.3,2.7,0.9,3.8
		c0.6,1,1.4,1.9,2.3,2.7c1,0.7,2.1,1.3,3.3,1.6c1.2,0.3,2.4,0.5,3.7,0.5c2.4,0,4.4-0.5,6-1.4c1.3-0.7,2.3-1.6,3.2-2.5v3.4h4.5V30.3
		c0-3.6-1-6.3-3-8.2C120.3,20.3,117.4,19.4,113.7,19.4z M120.9,36.7c0,1-0.2,1.9-0.6,2.7c-0.4,0.8-1,1.5-1.8,2.1
		c-0.8,0.6-1.7,1.1-2.7,1.4c-1,0.3-2.1,0.5-3.2,0.5c-0.9,0-1.7-0.1-2.5-0.3c-0.7-0.2-1.4-0.6-2-1c-0.6-0.4-1-0.9-1.3-1.5
		c-0.3-0.6-0.5-1.3-0.5-2.1c0-1.6,0.6-2.8,1.8-3.7c1.2-0.9,3.1-1.4,5.5-1.4c1.6,0,3,0.1,4.3,0.3c1.1,0.2,2.2,0.4,3.1,0.7V36.7z"/>
	<path class="st19" d="M152,24.1c-0.3-0.4-0.7-0.9-1.2-1.3c-0.7-0.7-1.4-1.3-2.3-1.8c-0.8-0.5-1.8-0.9-2.8-1.3
		c-1-0.3-2.2-0.5-3.3-0.5c-1.7,0-3.4,0.3-4.9,1c-1.5,0.6-2.9,1.6-4.1,2.8c-1.2,1.2-2.2,2.7-2.9,4.4c-0.7,1.7-1.1,3.7-1.1,5.9
		c0,2.2,0.4,4.2,1.1,5.9c0.7,1.7,1.7,3.2,2.9,4.4c1.2,1.2,2.6,2.1,4.1,2.7c1.5,0.6,3.1,0.9,4.8,0.9c1.3,0,2.4-0.2,3.4-0.5
		c1-0.3,2-0.8,2.8-1.3c0.8-0.5,1.6-1.2,2.3-1.9c0.4-0.5,0.8-0.9,1.2-1.4v4.6h4.6V8.9H152V24.1z M151.4,37.3
		c-0.5,1.2-1.2,2.3-2.1,3.1c-0.9,0.8-1.9,1.5-2.9,2c-1.1,0.5-2.2,0.7-3.4,0.7c-1.2,0-2.3-0.2-3.4-0.7c-1.1-0.4-2-1.1-2.8-2
		c-0.8-0.9-1.5-1.9-1.9-3.1c-0.5-1.2-0.7-2.6-0.7-4.1c0-1.5,0.2-2.9,0.7-4.1c0.5-1.2,1.1-2.3,1.9-3.1c0.8-0.8,1.7-1.5,2.8-1.9
		c1.1-0.4,2.2-0.7,3.5-0.7c1.2,0,2.3,0.2,3.4,0.7c1.1,0.5,2.1,1.1,2.9,2c0.9,0.8,1.6,1.9,2.1,3.1c0.5,1.2,0.8,2.6,0.8,4
		C152.1,34.7,151.9,36.1,151.4,37.3z"/>
	<path class="st19" d="M174,19.8c-1.1,0.3-2.2,0.9-3.1,1.6c-0.9,0.7-1.8,1.5-2.5,2.4c-0.4,0.5-0.8,1.1-1.2,1.7v-5.7h-4.6v27h4.6
		V35.9c0-1.9,0.3-3.6,0.8-5.1c0.5-1.5,1.3-2.7,2.2-3.7c0.9-1,2-1.7,3.2-2.2c1.2-0.5,2.5-0.7,3.9-0.7h0.7v-4.9l-0.7,0
		C176.1,19.3,175,19.5,174,19.8z"/>
	<rect x="182.5" y="19.8" class="st19" width="4.6" height="27"/>
	<path class="st19" d="M215.5,22.2c-0.9-1-2-1.7-3.3-2.2c-1.3-0.5-2.7-0.8-4.4-0.8c-2.3,0-4.3,0.5-5.7,1.6c-1.1,0.8-2.1,1.7-2.9,2.8
		v-3.8h-4.6v27h4.6V31.4c0-1.2,0.2-2.3,0.6-3.2c0.4-1,0.9-1.8,1.6-2.5c0.7-0.7,1.5-1.2,2.4-1.6c0.9-0.4,1.9-0.6,3-0.6
		c2.2,0,3.9,0.7,5.1,2c1.2,1.4,1.8,3.2,1.8,5.6v15.7h4.6V30.1c0-1.6-0.2-3.1-0.7-4.4C217,24.4,216.4,23.2,215.5,22.2z"/>
	<path class="st19" d="M238.2,23.9v-4.2h-8.3v-7.9h-4.6v7.9h-3.7v4.2h3.7v15.5c0,1.4,0.2,2.6,0.6,3.5c0.4,1,0.9,1.8,1.6,2.4
		c0.7,0.6,1.5,1.1,2.5,1.4c1,0.3,2,0.4,3.1,0.4c1,0,1.9-0.1,2.7-0.3c0.8-0.2,1.6-0.5,2.2-0.9l0.2-0.1v-4.1l-0.5,0.3
		c-0.6,0.3-1.3,0.6-1.8,0.7c-0.6,0.1-1.2,0.2-1.8,0.2c-1.2,0-2.2-0.3-3-0.9c-0.7-0.6-1.1-1.6-1.1-3.1v-15H238.2z"/>
	<rect x="182.3" y="9.7" class="st10" width="5.2" height="5"/>
</g>
<g id="white" class="st5">
	<g class="st6">
		<g>
			<path class="st20" d="M57.7,62.3v3.5h5.9v1.2h-7.2V56.7h7.1v1.2h-5.8v3.2h5v1.2H57.7z"/>
			<path class="st20" d="M68.3,60.1h1.3l-2.1,3.4l2.1,3.5h-1.3l-1.5-2.4l-1.4,2.4h-1.3l2.1-3.5l-2-3.4h1.3l1.4,2.4L68.3,60.1z"/>
			<path class="st20" d="M70.7,60.1h1.1v1c0.2-0.3,0.4-0.4,0.6-0.6c0.4-0.3,1.1-0.6,1.8-0.6c1.5,0,3.1,1.2,3.1,3.6
				c0,1.9-1,3.6-3.2,3.6c-0.9,0-1.7-0.3-2.3-1v4.1h-1.1V60.1z M71.8,63.6c0,1.5,0.7,2.5,2.1,2.5c0.4,0,0.8-0.1,1.2-0.3
				c0.4-0.2,1-0.9,1-2.3c0-1.6-0.9-2.6-2.2-2.5C72.6,61,71.8,62.1,71.8,63.6z"/>
			<path class="st20" d="M84.9,64.8c-0.2,0.5-0.8,2.3-3.1,2.3c-2,0-3.4-1.4-3.4-3.7c0-2.6,1.9-3.6,3.3-3.6c1.3,0,2.6,0.7,3,2.4
				c0.1,0.6,0.1,1.1,0.1,1.4h-5.2c0,1.1,0.6,2.6,2.2,2.6c1,0,1.6-0.7,1.8-1.6L84.9,64.8z M83.7,62.9c-0.1-1.8-1.4-2.1-2-2.1
				c-1,0-1.8,0.7-1.9,2.1H83.7z"/>
			<path class="st20" d="M87.6,60.1v1.2c0.7-1.3,1.9-1.3,2.4-1.3v1.2c-0.1,0-0.3,0-0.5,0c-0.7,0-1.2,0.3-1.6,0.8
				c-0.3,0.5-0.3,1.1-0.3,1.7v3.2h-1.2v-6.8H87.6z"/>
			<path class="st20" d="M92.2,56.7V58h-1.1v-1.3H92.2z M92.2,60.1v6.8h-1.1v-6.8H92.2z"/>
			<path class="st20" d="M100.1,64.8c-0.2,0.5-0.8,2.3-3.1,2.3c-2,0-3.4-1.4-3.4-3.7c0-2.6,1.9-3.6,3.3-3.6c1.3,0,2.6,0.7,3,2.4
				c0.1,0.6,0.1,1.1,0.1,1.4h-5.2c0,1.1,0.6,2.6,2.2,2.6c1,0,1.6-0.7,1.8-1.6L100.1,64.8z M98.8,62.9c-0.1-1.8-1.4-2.1-2-2.1
				c-1,0-1.8,0.7-1.9,2.1H98.8z"/>
			<path class="st20" d="M102.7,60.1v1c0.6-1.1,1.7-1.2,2.1-1.2c0.9,0,1.9,0.4,2.3,1.6c0.1,0.4,0.1,0.8,0.1,1.4v4.1h-1.1v-3.9
				c0-0.7,0-0.9-0.1-1.1c-0.2-0.7-0.8-0.9-1.5-0.9c-0.5,0-0.9,0.2-1.3,0.5c-0.5,0.5-0.5,1-0.5,1.5v3.9h-1.2v-6.8H102.7z"/>
			<path class="st20" d="M115.4,64.5c0,0.3-0.1,0.7-0.4,1.2c-0.6,1-1.5,1.5-2.8,1.5c-2.5,0-3.4-1.9-3.4-3.6c0-1.9,1-3.7,3.3-3.7
				c1.1,0,2.7,0.4,3.2,2.3l-1.3,0.1c0-0.3-0.3-1.6-1.8-1.6c-2,0-2.1,2.2-2.1,2.8c0,0.7,0.1,1.4,0.5,1.8c0.4,0.6,1,0.9,1.7,0.9
				c1.7,0,1.9-1.4,1.9-1.9L115.4,64.5z"/>
			<path class="st20" d="M122.8,64.8c-0.2,0.5-0.8,2.3-3.1,2.3c-2,0-3.4-1.4-3.4-3.7c0-2.6,1.9-3.6,3.3-3.6c1.3,0,2.6,0.7,3,2.4
				c0.1,0.6,0.1,1.1,0.1,1.4h-5.2c0,1.1,0.6,2.6,2.2,2.6c1,0,1.6-0.7,1.8-1.6L122.8,64.8z M121.5,62.9c-0.1-1.8-1.4-2.1-2-2.1
				c-1,0-1.8,0.7-1.9,2.1H121.5z"/>
			<path class="st20" d="M129.7,62.6v4.3h-1.3V56.7h4.4c0.5,0,1.1,0,1.6,0.2c1.2,0.4,1.8,1.5,1.8,2.7c0,1.1-0.5,2.4-1.9,2.8
				c-0.5,0.2-1,0.2-1.6,0.2H129.7z M129.7,61.4h2.9c0.8,0,1.3,0,1.8-0.5c0.3-0.3,0.5-0.9,0.5-1.4c0-0.3-0.1-0.9-0.5-1.3
				c-0.5-0.4-1-0.4-1.4-0.4h-3.2V61.4z"/>
			<path class="st20" d="M140,67.1c-2.4,0-3.4-1.8-3.4-3.6c0-1.5,0.8-3.7,3.4-3.7c2.3,0,3.3,1.8,3.3,3.6
				C143.4,65.6,142.1,67.1,140,67.1z M142,62.6c-0.3-1.4-1.1-1.7-1.9-1.7c-1.6,0-2.2,1.2-2.2,2.8c0,1.4,0.6,2.6,2.1,2.6
				c1.9,0,2.1-2,2.1-2.7C142.1,63.1,142.1,62.8,142,62.6z"/>
			<path class="st20" d="M149.8,60.1l1.6,5.1l1.8-5.1h1.2l-2.5,6.8h-1l-1.6-5.1l-1.7,5.1h-1.1l-2.4-6.8h1.3l1.7,5.1l1.7-5.1H149.8z"
				/>
			<path class="st20" d="M161.6,64.8c-0.2,0.5-0.8,2.3-3.1,2.3c-2,0-3.4-1.4-3.4-3.7c0-2.6,1.9-3.6,3.3-3.6c1.3,0,2.6,0.7,3,2.4
				c0.1,0.6,0.1,1.1,0.1,1.4h-5.2c0,1.1,0.6,2.6,2.2,2.6c1,0,1.6-0.7,1.8-1.6L161.6,64.8z M160.3,62.9c-0.1-1.8-1.4-2.1-2-2.1
				c-1,0-1.8,0.7-1.9,2.1H160.3z"/>
			<path class="st20" d="M164.2,60.1v1.2c0.7-1.3,1.9-1.3,2.4-1.3v1.2c-0.1,0-0.3,0-0.5,0c-0.7,0-1.2,0.3-1.6,0.8
				c-0.3,0.5-0.3,1.1-0.3,1.7v3.2h-1.2v-6.8H164.2z"/>
			<path class="st20" d="M168.8,56.7V58h-1.1v-1.3H168.8z M168.8,60.1v6.8h-1.1v-6.8H168.8z"/>
			<path class="st20" d="M171.8,60.1v1c0.6-1.1,1.7-1.2,2.1-1.2c0.9,0,1.9,0.4,2.3,1.6c0.1,0.4,0.1,0.8,0.1,1.4v4.1h-1.1v-3.9
				c0-0.7,0-0.9-0.1-1.1c-0.2-0.7-0.8-0.9-1.5-0.9c-0.5,0-0.9,0.2-1.3,0.5c-0.5,0.5-0.5,1-0.5,1.5v3.9h-1.2v-6.8H171.8z"/>
			<path class="st20" d="M184.5,60.1v6.5c0,0.8,0,1.7-0.4,2.4c-0.5,0.9-1.7,1.3-2.7,1.3c-0.7,0-1.5-0.2-2.1-0.6c-0.9-0.6-1-1.6-1-2
				h1.3c0,0.8,0.5,1.6,1.9,1.6c0.8,0,1.2-0.3,1.5-0.5c0.4-0.5,0.4-1,0.4-2.1v-0.8c-0.2,0.3-0.9,1.2-2.3,1.2c-1.7,0-3.2-1.2-3.2-3.6
				c0-2.8,1.8-3.7,3.2-3.7c0.6,0,1.5,0.2,2.2,1.1v-0.9H184.5z M179,63.5c0,0.4,0,1.2,0.5,1.8c0.5,0.6,1.1,0.8,1.7,0.8
				c0.7,0,1.3-0.3,1.7-0.9c0.4-0.6,0.5-1.4,0.5-1.8c0-2.3-1.7-2.5-2.2-2.5C179.9,60.9,179,61.9,179,63.5z"/>
			<path class="st20" d="M191.7,56.7v10.3h-1.4V56.7H191.7z"/>
			<path class="st20" d="M194.8,60.1v1c0.6-1.1,1.7-1.2,2.1-1.2c0.9,0,1.9,0.4,2.3,1.6c0.1,0.4,0.1,0.8,0.1,1.4v4.1h-1.1v-3.9
				c0-0.7,0-0.9-0.1-1.1c-0.2-0.7-0.8-0.9-1.5-0.9c-0.5,0-0.9,0.2-1.3,0.5c-0.5,0.5-0.5,1-0.5,1.5v3.9h-1.2v-6.8H194.8z"/>
			<path class="st20" d="M202.8,60.1h1.3v1h-1.3V65c0,0.8,0,1.2,0.5,1.2c0.2,0,0.5-0.1,0.8-0.2v1c-0.2,0-0.7,0.1-1.1,0.1
				c-1.3,0-1.3-0.7-1.3-1.6v-4.4h-1.1v-1h1.1v-2.2h1.2V60.1z"/>
			<path class="st20" d="M211.5,64.8c-0.2,0.5-0.8,2.3-3.1,2.3c-2,0-3.4-1.4-3.4-3.7c0-2.6,1.9-3.6,3.3-3.6c1.3,0,2.6,0.7,3,2.4
				c0.1,0.6,0.1,1.1,0.1,1.4h-5.2c0,1.1,0.6,2.6,2.2,2.6c1,0,1.6-0.7,1.8-1.6L211.5,64.8z M210.3,62.9c-0.1-1.8-1.4-2.1-2-2.1
				c-1,0-1.8,0.7-1.9,2.1H210.3z"/>
			<path class="st20" d="M214.1,56.7v10.3H213V56.7H214.1z"/>
			<path class="st20" d="M217.2,56.7v10.3H216V56.7H217.2z"/>
			<path class="st20" d="M220.2,56.7V58h-1.1v-1.3H220.2z M220.2,60.1v6.8h-1.1v-6.8H220.2z"/>
			<path class="st20" d="M228.4,60.1v6.5c0,0.8,0,1.7-0.4,2.4c-0.5,0.9-1.7,1.3-2.7,1.3c-0.7,0-1.5-0.2-2.1-0.6c-0.9-0.6-1-1.6-1-2
				h1.3c0,0.8,0.5,1.6,1.9,1.6c0.8,0,1.2-0.3,1.5-0.5c0.4-0.5,0.4-1,0.4-2.1v-0.8c-0.2,0.3-0.9,1.2-2.3,1.2c-1.7,0-3.2-1.2-3.2-3.6
				c0-2.8,1.8-3.7,3.2-3.7c0.6,0,1.5,0.2,2.2,1.1v-0.9H228.4z M222.9,63.5c0,0.4,0,1.2,0.5,1.8c0.5,0.6,1.1,0.8,1.7,0.8
				c0.7,0,1.3-0.3,1.7-0.9c0.4-0.6,0.5-1.4,0.5-1.8c0-2.3-1.7-2.5-2.2-2.5C223.8,60.9,222.9,61.9,222.9,63.5z"/>
			<path class="st20" d="M236.3,64.8c-0.2,0.5-0.8,2.3-3.1,2.3c-2,0-3.4-1.4-3.4-3.7c0-2.6,1.9-3.6,3.3-3.6c1.3,0,2.6,0.7,3,2.4
				c0.1,0.6,0.1,1.1,0.1,1.4h-5.2c0,1.1,0.6,2.6,2.2,2.6c1,0,1.6-0.7,1.8-1.6L236.3,64.8z M235.1,62.9c-0.1-1.8-1.4-2.1-2-2.1
				c-1,0-1.8,0.7-1.9,2.1H235.1z"/>
			<path class="st20" d="M239,60.1v1c0.6-1.1,1.7-1.2,2.1-1.2c0.9,0,1.9,0.4,2.3,1.6c0.1,0.4,0.1,0.8,0.1,1.4v4.1h-1.1v-3.9
				c0-0.7,0-0.9-0.1-1.1c-0.2-0.7-0.8-0.9-1.5-0.9c-0.5,0-0.9,0.2-1.3,0.5c-0.5,0.5-0.5,1-0.5,1.5v3.9h-1.2v-6.8H239z"/>
			<path class="st20" d="M251.6,64.5c0,0.3-0.1,0.7-0.4,1.2c-0.6,1-1.5,1.5-2.8,1.5c-2.5,0-3.4-1.9-3.4-3.6c0-1.9,1-3.7,3.3-3.7
				c1.1,0,2.7,0.4,3.2,2.3l-1.3,0.1c0-0.3-0.3-1.6-1.8-1.6c-2,0-2.1,2.2-2.1,2.8c0,0.7,0.1,1.4,0.4,1.8c0.4,0.6,1,0.9,1.7,0.9
				c1.7,0,1.9-1.4,1.9-1.9L251.6,64.5z"/>
			<path class="st20" d="M259,64.8c-0.2,0.5-0.8,2.3-3.1,2.3c-2,0-3.4-1.4-3.4-3.7c0-2.6,1.9-3.6,3.3-3.6c1.3,0,2.6,0.7,3,2.4
				c0.1,0.6,0.1,1.1,0.1,1.4h-5.2c0,1.1,0.6,2.6,2.2,2.6c1,0,1.6-0.7,1.8-1.6L259,64.8z M257.8,62.9c-0.1-1.8-1.4-2.1-2-2.1
				c-1,0-1.8,0.7-1.9,2.1H257.8z"/>
		</g>
	</g>
	<path class="st19" d="M56.2,40.4"/>
	<path class="st21" d="M52.9,31.7"/>
	<polygon class="st19" points="52.5,30.6 49.6,33.6 61.5,45.6 56.1,51 62.1,51 67.5,45.6 	"/>
	<path class="st19" d="M54.6,41.6c-0.6,0.3-1.1,0.5-1.6,0.7c-1.3,0.5-2.8,0.7-4.3,0.7c-2,0-3.9-0.4-5.5-1.1
		c-1.7-0.8-3.1-1.8-4.3-3.1c-1.2-1.3-2.2-2.8-2.9-4.6c-0.7-1.7-1-3.6-1-5.6c0-2,0.3-3.9,1-5.6c0.7-1.7,1.6-3.3,2.8-4.5
		c1.2-1.3,2.6-2.3,4.3-3c1.7-0.7,3.5-1.1,5.5-1.1c2,0,3.8,0.4,5.5,1.1c1.7,0.8,3.1,1.8,4.3,3.1c1.2,1.3,2.2,2.8,2.9,4.6
		c0.7,1.8,1,3.6,1,5.6c0,1.7-0.3,3.4-0.8,4.9c-0.2,0.7-0.5,1.4-0.9,2l3.5,3.5c0.8-1.2,1.5-2.6,2-3.9c0.7-2.1,1.1-4.3,1.1-6.6
		c0-2.5-0.4-4.9-1.3-7.2c-0.9-2.3-2.1-4.3-3.8-6c-1.6-1.7-3.6-3.1-5.8-4.1c-2.3-1-4.8-1.5-7.5-1.5c-2.7,0-5.3,0.5-7.6,1.5
		c-2.3,1-4.2,2.4-5.9,4.1c-1.6,1.7-2.9,3.7-3.8,6c-0.9,2.3-1.3,4.7-1.3,7.2c0,2.5,0.4,4.9,1.3,7.2c0.9,2.2,2.1,4.3,3.8,6
		c1.6,1.7,3.6,3.1,5.8,4.1c2.3,1,4.8,1.5,7.5,1.5c2.3,0,4.4-0.3,6.3-1c1-0.3,2-0.8,3.1-1.5l0.1-0.1L54.6,41.6L54.6,41.6z"/>
	<path class="st19" d="M91.8,35.2c0,1.2-0.2,2.3-0.6,3.2c-0.4,1-0.9,1.8-1.6,2.5c-0.7,0.7-1.5,1.2-2.4,1.6c-0.9,0.4-1.9,0.6-3,0.6
		c-2.2,0-3.9-0.7-5.1-2c-1.2-1.4-1.8-3.2-1.8-5.6V19.8h-4.6v16.7c0,1.6,0.2,3.1,0.7,4.4c0.5,1.3,1.2,2.5,2.1,3.4
		c0.9,1,2,1.7,3.3,2.2c1.3,0.5,2.8,0.8,4.4,0.8c2.3,0,4.3-0.5,5.7-1.6C90.1,45,91,44,91.8,43v3.8h4.6v-27h-4.6V35.2z"/>
	<path class="st19" d="M113.7,19.4c-2,0-3.7,0.2-5.2,0.6c-1.5,0.4-3,0.9-4.5,1.6l-0.3,0.1l1.4,3.9l0.4-0.2c1.2-0.6,2.4-1,3.7-1.4
		c1.2-0.3,2.6-0.5,4.1-0.5c2.4,0,4.2,0.6,5.5,1.7c1.3,1.1,1.9,2.8,1.9,5.1v0.5c-1.1-0.3-2.1-0.5-3.3-0.7c-1.2-0.2-2.7-0.3-4.1-0.3
		c-1.9,0-3.7,0.2-5,0.6c-1.4,0.4-2.6,0.9-3.7,1.7c-1,0.7-1.9,1.7-2.4,2.8c-0.6,1.1-0.9,2.4-0.9,3.8c0,1.4,0.3,2.7,0.9,3.8
		c0.6,1,1.4,1.9,2.3,2.7c1,0.7,2.1,1.3,3.3,1.6c1.2,0.3,2.4,0.5,3.7,0.5c2.4,0,4.4-0.5,6-1.4c1.3-0.7,2.3-1.6,3.2-2.5v3.4h4.5V30.3
		c0-3.6-1-6.3-3-8.2C120.3,20.3,117.4,19.4,113.7,19.4z M120.9,36.7c0,1-0.2,1.9-0.6,2.7c-0.4,0.8-1,1.5-1.8,2.1
		c-0.8,0.6-1.7,1.1-2.7,1.4c-1,0.3-2.1,0.5-3.2,0.5c-0.9,0-1.7-0.1-2.5-0.3c-0.7-0.2-1.4-0.6-2-1c-0.6-0.4-1-0.9-1.3-1.5
		c-0.3-0.6-0.5-1.3-0.5-2.1c0-1.6,0.6-2.8,1.8-3.7c1.2-0.9,3.1-1.4,5.5-1.4c1.6,0,3,0.1,4.3,0.3c1.1,0.2,2.2,0.4,3.1,0.7V36.7z"/>
	<path class="st19" d="M152,24.1c-0.3-0.4-0.7-0.9-1.2-1.3c-0.7-0.7-1.4-1.3-2.3-1.8c-0.8-0.5-1.8-0.9-2.8-1.3
		c-1-0.3-2.2-0.5-3.3-0.5c-1.7,0-3.4,0.3-4.9,1c-1.5,0.6-2.9,1.6-4.1,2.8c-1.2,1.2-2.2,2.7-2.9,4.4c-0.7,1.7-1.1,3.7-1.1,5.9
		c0,2.2,0.4,4.2,1.1,5.9c0.7,1.7,1.7,3.2,2.9,4.4c1.2,1.2,2.6,2.1,4.1,2.7c1.5,0.6,3.1,0.9,4.8,0.9c1.3,0,2.4-0.2,3.4-0.5
		c1-0.3,2-0.8,2.8-1.3c0.8-0.5,1.6-1.2,2.3-1.9c0.4-0.5,0.8-0.9,1.2-1.4v4.6h4.6V8.9H152V24.1z M151.4,37.3
		c-0.5,1.2-1.2,2.3-2.1,3.1c-0.9,0.8-1.9,1.5-2.9,2c-1.1,0.5-2.2,0.7-3.4,0.7c-1.2,0-2.3-0.2-3.4-0.7c-1.1-0.4-2-1.1-2.8-2
		c-0.8-0.9-1.5-1.9-1.9-3.1c-0.5-1.2-0.7-2.6-0.7-4.1c0-1.5,0.2-2.9,0.7-4.1c0.5-1.2,1.1-2.3,1.9-3.1c0.8-0.8,1.7-1.5,2.8-1.9
		c1.1-0.4,2.2-0.7,3.5-0.7c1.2,0,2.3,0.2,3.4,0.7c1.1,0.5,2.1,1.1,2.9,2c0.9,0.8,1.6,1.9,2.1,3.1c0.5,1.2,0.8,2.6,0.8,4
		C152.1,34.7,151.9,36.1,151.4,37.3z"/>
	<path class="st19" d="M174,19.8c-1.1,0.3-2.2,0.9-3.1,1.6c-0.9,0.7-1.8,1.5-2.5,2.4c-0.4,0.5-0.8,1.1-1.2,1.7v-5.7h-4.6v27h4.6
		V35.9c0-1.9,0.3-3.6,0.8-5.1c0.5-1.5,1.3-2.7,2.2-3.7c0.9-1,2-1.7,3.2-2.2c1.2-0.5,2.5-0.7,3.9-0.7h0.7v-4.9l-0.7,0
		C176.1,19.3,175,19.5,174,19.8z"/>
	<rect x="182.5" y="19.8" class="st19" width="4.6" height="27"/>
	<path class="st19" d="M215.5,22.2c-0.9-1-2-1.7-3.3-2.2c-1.3-0.5-2.7-0.8-4.4-0.8c-2.3,0-4.3,0.5-5.7,1.6c-1.1,0.8-2.1,1.7-2.9,2.8
		v-3.8h-4.6v27h4.6V31.4c0-1.2,0.2-2.3,0.6-3.2c0.4-1,0.9-1.8,1.6-2.5c0.7-0.7,1.5-1.2,2.4-1.6c0.9-0.4,1.9-0.6,3-0.6
		c2.2,0,3.9,0.7,5.1,2c1.2,1.4,1.8,3.2,1.8,5.6v15.7h4.6V30.1c0-1.6-0.2-3.1-0.7-4.4C217,24.4,216.4,23.2,215.5,22.2z"/>
	<path class="st19" d="M238.2,23.9v-4.2h-8.3v-7.9h-4.6v7.9h-3.7v4.2h3.7v15.5c0,1.4,0.2,2.6,0.6,3.5c0.4,1,0.9,1.8,1.6,2.4
		c0.7,0.6,1.5,1.1,2.5,1.4c1,0.3,2,0.4,3.1,0.4c1,0,1.9-0.1,2.7-0.3c0.8-0.2,1.6-0.5,2.2-0.9l0.2-0.1v-4.1l-0.5,0.3
		c-0.6,0.3-1.3,0.6-1.8,0.7c-0.6,0.1-1.2,0.2-1.8,0.2c-1.2,0-2.2-0.3-3-0.9c-0.7-0.6-1.1-1.6-1.1-3.1v-15H238.2z"/>
	<rect x="182.3" y="9.7" class="st19" width="5.2" height="5"/>
</g>
</svg>
